Ad Format	Ad Group	Ad Group ID	Ad Group Integer ID	Ad Server Creative Placement ID	Ad Server Name	Advertiser	Advertiser Currency Code	Advertiser ID	Advertiser Integer ID	Campaign	Campaign ID	Campaign Integer ID	Creative	Creative ID	Creative Integer ID	Date	Media Type	Partner Currency Code	Partner ID	Partner Integer ID	Partner Name	Timezone	Advertiser Cost (USD)	Impressions	Clicks	01 - Click Conversion	01 - Click Conversion Revenue	01 - Conversion Touch	01 - Total Click + View Conversions	01 - View Through Conversion	01 - View Through Conversion Revenue	02 - Click Conversion	02 - Click Conversion Revenue	02 - Conversion Touch	02 - Total Click + View Conversions	02 - View Through Conversion	02 - View Through Conversion Revenue	03 - Click Conversion	03 - Click Conversion Revenue	03 - Conversion Touch	03 - Total Click + View Conversions	03 - View Through Conversion	03 - View Through Conversion Revenue	04 - Click Conversion	04 - Click Conversion Revenue	04 - Conversion Touch	04 - Total Click + View Conversions	04 - View Through Conversion	04 - View Through Conversion Revenue	05 - Click Conversion	05 - Click Conversion Revenue	05 - Conversion Touch	05 - Total Click + View Conversions	05 - View Through Conversion	05 - View Through Conversion Revenue	10 - Conversion Touch	10 - Click Conversion	10 - Click Conversion Revenue	10 - View Through Conversion	10 - View Through Conversion Revenue	10 - Total Click + View Conversions	11 - Conversion Touch	11 - Click Conversion	11 - Click Conversion Revenue	11 - View Through Conversion	11 - View Through Conversion Revenue	11 - Total Click + View Conversions	12 - Conversion Touch	12 - Click Conversion	12 - Click Conversion Revenue	12 - View Through Conversion	12 - View Through Conversion Revenue	12 - Total Click + View Conversions	13 - Conversion Touch	13 - Click Conversion	13 - Click Conversion Revenue	13 - View Through Conversion	13 - View Through Conversion Revenue	13 - Total Click + View Conversions	06 - Conversion Touch	06 - Click Conversion	06 - Click Conversion Revenue	06 - View Through Conversion	06 - View Through Conversion Revenue	06 - Total Click + View Conversions	07 - Conversion Touch	07 - Click Conversion	07 - Click Conversion Revenue	07 - View Through Conversion	07 - View Through Conversion Revenue	07 - Total Click + View Conversions	08 - Conversion Touch	08 - Click Conversion	08 - Click Conversion Revenue	08 - View Through Conversion	08 - View Through Conversion Revenue	08 - Total Click + View Conversions	09 - Conversion Touch	09 - Click Conversion	09 - Click Conversion Revenue	09 - View Through Conversion	09 - View Through Conversion Revenue	09 - Total Click + View Conversions	14 - Conversion Touch	14 - Click Conversion	14 - Click Conversion Revenue	14 - View Through Conversion	14 - View Through Conversion Revenue	14 - Total Click + View Conversions	15 - Conversion Touch	15 - Click Conversion	15 - Click Conversion Revenue	15 - View Through Conversion	15 - View Through Conversion Revenue	15 - Total Click + View Conversions	16 - Conversion Touch	16 - Click Conversion	16 - Click Conversion Revenue	16 - View Through Conversion	16 - View Through Conversion Revenue	16 - Total Click + View Conversions
160x600	BHC - Retargeting - Desktop	wjhbtj3	1476156	18539027	MediaMind	ASU - Barrett Honors College	USD	50wtx2h	93405	ASU Barrett Honors College - 2017	fydyoq3	429915	WGIG_RET-BHC-160x600	yhemg9jk	2786477	06/09/2018	Display	USD	7dzcocc	1627	Whirlygig Networks	UTC	0	0	0	0	0	0	0	0	0	0	0	18	4	4	0	0	0	0	0	0	0	0	0	30	3	3	0	0	0	0	0	0	0	0	0	0	0	0	0	0	0	0	0	0	0	0	0	0	0	0	0	0	0	0	0	0	0	0	0	0	0	0	0	0	0	0	0	0	0	0	0	0	0	0	0	0	0	0	0	0	0	0	0	0	0	0	0	0	0	0	0	0	0	0	0	0	0	0	0
160x600	Draper- CRM Desktop	sbbd7yf	2359438	23313337	MediaMind	ASU- W.P. Carey School of Business 	USD	u8trxzk	90575	ASU W.P. Carey - 2017 Draper U	yipyupu	608583	a-ASUWPC_v-PROG_c-dCPM_b1-DU_b2-PROSP_m-NA_s-160x600	t04wykuj	4895290	06/09/2018	Display	USD	7dzcocc	1627	Whirlygig Networks	UTC	0	0	0	0	0	0	0	0	0	0	0	0	0	0	0	0	0	0	0	0	0	0	0	0	0	0	0	0	0	6	3	3	0	0	0	0	0	0	0	0	0	0	0	0	0	0	0	0	0	0	0	0	0	0	0	0	0	0	0	0	0	0	0	0	0	0	0	0	0	2	0	0	2	0	2	0	0	0	0	0	0	0	0	0	0	0	0	0	0	0	0	0	0	0	0	0	0	0	0
160x600	Exec Ed Prospecting Oil & Gas - Contextual	lqyox4x	2238462	24588225	MediaMind	ASU- Thunderbird School of Global Management 	USD	lrpjz8t	91145	ASU Thunderbird - 2017 - Oil & Gas	7bzd02o	570969	a-ASUTBIRD_v-PROG_c-dCPM_b1-EE_b2-PROSP_b3-NA_m-NA_s-160x600	joygfrwk	5722110	06/09/2018	Display	USD	7dzcocc	1627	Whirlygig Networks	UTC	2.133306908182602	293	0	0	0	0	0	0	0	0	0	0	0	0	0	0	0	0	0	0	0	0	0	0	0	0	0	0	0	0	0	0	0	0	0	0	0	0	0	0	0	0	0	0	0	0	0	0	0	0	0	0	0	0	0	0	0	0	0	0	0	0	0	0	0	0	0	0	0	0	0	0	0	0	0	0	0	0	0	0	0	0	0	0	0	0	0	0	0	0	0	0	0	0	0	0	0	0	0
160x600	Exec Ed Prospecting Oil & Gas - Oil Companies 	i8t5tbo	2234153	24588225	MediaMind	ASU- Thunderbird School of Global Management 	USD	lrpjz8t	91145	ASU Thunderbird - 2017 - Oil & Gas	7bzd02o	570969	a-ASUTBIRD_v-PROG_c-dCPM_b1-EE_b2-PROSP_b3-NA_m-NA_s-160x600	joygfrwk	5722110	06/09/2018	Display	USD	7dzcocc	1627	Whirlygig Networks	UTC	0.86095709016645	107	1	0	0	0	0	0	0	0	0	0	0	0	0	0	0	0	0	0	0	0	0	0	0	0	0	0	0	0	0	0	0	0	0	0	0	0	0	0	0	0	0	0	0	0	0	0	0	0	0	0	0	0	0	0	0	0	0	0	0	0	0	0	0	0	0	0	0	0	0	0	0	0	0	0	0	0	0	0	0	0	0	0	0	0	0	0	0	0	0	0	0	0	0	0	0	0	0
160x600	MBA Preview Day - Audience Predictor- Mobile Web	fwt61qg	2157157	24808118	MediaMind	ASU- W.P. Carey School of Business 	USD	u8trxzk	90575	ASU W.P CAREY - 2017 MBA Preview Day	2ohotlg	568685	a-ASUWPC_v-PROG_c-dCPM_b1-MBA_b2-MOB_b3-AZ_m-MBAPD517DISP_s-160x600	18eklkwi	5909134	06/09/2018	Display	USD	7dzcocc	1627	Whirlygig Networks	UTC	0	0	0	0	0	0	0	0	0	0	0	2	1	1	0	0	0	0	0	0	0	0	0	0	0	0	0	0	0	2	1	1	0	0	0	0	0	0	0	0	0	0	0	0	0	0	0	0	0	0	0	0	0	0	0	0	0	0	0	0	0	0	0	0	0	0	0	0	0	0	0	0	0	0	0	0	0	0	0	0	0	0	0	0	0	0	0	0	0	0	0	0	0	0	0	0	0	0	0
160x600	MBA Prospecting - Keyword Retargeting	hiudl15	2526137	22174031	MediaMind	ASU- W.P. Carey School of Business 	USD	u8trxzk	90575	ASU W.P. CAREY - 2017 MBA 	3wn1s5d	428146	a-ASUWPC_v-PROG_c-dCPM_b1-MBA_b2-PROSP_b3-AZ_m-NA_s-160x600	sjagg7y6	4184841	06/09/2018	Display	USD	7dzcocc	1627	Whirlygig Networks	UTC	0.590823774706185	99	0	0	0	0	0	0	0	0	0	0	0	0	0	0	0	0	0	0	0	0	0	0	0	0	0	0	0	0	0	0	0	0	0	0	0	0	0	0	0	0	0	0	0	0	0	0	0	0	0	0	0	0	0	0	0	0	0	0	0	0	0	0	0	0	0	0	0	0	0	0	0	0	0	0	0	0	0	0	0	0	0	0	0	0	0	0	0	0	0	0	0	0	0	0	0	0	0
160x600	MBA Prospecting - Keyword Retargeting	hiudl15	2526137	24563786	MediaMind	ASU- W.P. Carey School of Business 	USD	u8trxzk	90575	ASU W.P. CAREY - 2017 MBA 	3wn1s5d	428146	a-ASUWPC_v-PROG_c-dCPM_b1-MBA_b2-PROSP_b3-AZ_m-PFLEX_s-160x600	z57pqc7y	5709818	06/09/2018	Display	USD	7dzcocc	1627	Whirlygig Networks	UTC	0.701633659961284	118	0	0	0	0	0	0	0	0	0	0	0	0	0	0	0	0	0	0	0	0	0	0	0	0	0	0	0	1	0	0	0	0	0	0	0	0	0	0	0	0	0	0	0	0	0	0	0	0	0	0	0	0	0	0	0	0	0	0	0	0	0	0	0	0	0	0	0	0	0	0	0	0	0	0	0	0	0	0	0	0	0	0	0	0	0	0	0	0	0	0	0	0	0	0	0	0	0
160x600	MBA Prospecting- AZ (Desktop) - MBA Only Seekers	9c3pwvm	1614693	22174031	MediaMind	ASU- W.P. Carey School of Business 	USD	u8trxzk	90575	ASU W.P. CAREY - 2017 MBA 	3wn1s5d	428146	a-ASUWPC_v-PROG_c-dCPM_b1-MBA_b2-PROSP_b3-AZ_m-NA_s-160x600	sjagg7y6	4184841	06/09/2018	Display	USD	7dzcocc	1627	Whirlygig Networks	UTC	7.536061120171969	947	0	0	0	0	0	0	0	0	0	0	0	0	0	0	0	4	0	0	0	0	0	0	0	0	0	0	0	0	0	0	0	0	0	0	0	0	0	0	0	0	0	0	0	0	0	0	0	0	0	4	0	0	0	0	0	0	0	0	0	0	0	0	0	0	0	0	0	0	0	0	0	0	0	0	0	0	0	0	0	0	0	0	0	0	0	0	0	0	0	0	0	0	0	0	0	0	0
160x600	MBA Prospecting- AZ (Desktop) - MBA Only Seekers	9c3pwvm	1614693	24563786	MediaMind	ASU- W.P. Carey School of Business 	USD	u8trxzk	90575	ASU W.P. CAREY - 2017 MBA 	3wn1s5d	428146	a-ASUWPC_v-PROG_c-dCPM_b1-MBA_b2-PROSP_b3-AZ_m-PFLEX_s-160x600	z57pqc7y	5709818	06/09/2018	Display	USD	7dzcocc	1627	Whirlygig Networks	UTC	7.471855881780355	959	0	0	0	0	0	0	0	0	0	0	0	0	0	0	0	4	0	0	0	0	0	0	0	0	0	0	0	0	0	0	0	0	0	0	0	0	0	0	0	0	0	0	0	0	0	0	0	0	0	4	0	0	0	0	0	0	0	0	0	0	0	0	0	0	0	0	0	0	0	0	0	0	0	0	0	0	0	0	0	0	0	0	0	0	0	0	0	0	0	0	0	0	0	0	0	0	0
160x600	MBA Prospecting- AZ (Desktop) - Senior Level Position	gu9ix5o	1469174	22174031	MediaMind	ASU- W.P. Carey School of Business 	USD	u8trxzk	90575	ASU W.P. CAREY - 2017 MBA 	3wn1s5d	428146	a-ASUWPC_v-PROG_c-dCPM_b1-MBA_b2-PROSP_b3-AZ_m-NA_s-160x600	sjagg7y6	4184841	06/09/2018	Display	USD	7dzcocc	1627	Whirlygig Networks	UTC	2.924610694573305	568	0	0	0	0	0	0	0	0	0	1	0	0	0	0	0	0	0	0	0	0	0	0	0	0	0	0	0	1	0	0	0	0	0	0	0	0	0	0	0	0	0	0	0	0	0	0	0	0	0	0	0	0	0	0	0	0	0	0	0	0	0	0	0	0	0	0	0	0	0	0	0	0	0	0	0	0	0	0	0	0	0	0	0	0	0	0	0	0	0	0	0	0	0	0	0	0	0
160x600	MBA Prospecting- AZ (Desktop) - Senior Level Position	gu9ix5o	1469174	24563786	MediaMind	ASU- W.P. Carey School of Business 	USD	u8trxzk	90575	ASU W.P. CAREY - 2017 MBA 	3wn1s5d	428146	a-ASUWPC_v-PROG_c-dCPM_b1-MBA_b2-PROSP_b3-AZ_m-PFLEX_s-160x600	z57pqc7y	5709818	06/09/2018	Display	USD	7dzcocc	1627	Whirlygig Networks	UTC	3.240302495965674	678	0	0	0	0	0	0	0	0	0	0	0	0	0	0	0	0	0	0	0	0	0	0	0	0	0	0	0	0	0	0	0	0	0	0	0	0	0	0	0	0	0	0	0	0	0	0	0	0	0	0	0	0	0	0	0	0	0	0	0	0	0	0	0	0	0	0	0	0	0	0	0	0	0	0	0	0	0	0	0	0	0	0	0	0	0	0	0	0	0	0	0	0	0	0	0	0	0
160x600	MBA Prospecting- Audience Predictor - Arizona	vdgjmyx	1783424	22174031	MediaMind	ASU- W.P. Carey School of Business 	USD	u8trxzk	90575	ASU W.P. CAREY - 2017 MBA 	3wn1s5d	428146	a-ASUWPC_v-PROG_c-dCPM_b1-MBA_b2-PROSP_b3-AZ_m-NA_s-160x600	sjagg7y6	4184841	06/09/2018	Display	USD	7dzcocc	1627	Whirlygig Networks	UTC	19.766259926965445	5368	1	0	0	0	0	0	0	0	0	6	0	0	0	0	0	0	0	0	0	0	0	0	0	0	0	0	0	12	3	3	0	0	0	0	0	0	0	0	0	0	0	0	0	0	0	0	0	0	0	0	0	0	0	0	0	0	0	0	0	0	0	1	0	0	0	0	0	0	0	0	0	0	0	0	0	0	0	0	0	0	0	0	0	0	0	0	0	0	0	0	0	0	0	0	0	0	0
160x600	MBA RETARGETING- Arizona Only (Desktop)	yxsq8rx	1469164	22174036	MediaMind	ASU- W.P. Carey School of Business 	USD	u8trxzk	90575	ASU W.P. CAREY - 2017 MBA 	3wn1s5d	428146	a-ASUWPC_v-PROG_c-dCPM_b1-MBA_b2-RET_b3-AZ_m-NA_s-160x600	fuf6y76k	4184856	06/09/2018	Display	USD	7dzcocc	1627	Whirlygig Networks	UTC	1.131487915265494	192	0	0	0	0	0	0	0	0	0	0	0	0	0	0	0	0	0	0	0	0	0	0	0	0	0	0	0	0	0	0	0	0	0	0	0	0	0	0	0	0	0	0	0	0	0	0	0	0	0	0	0	0	0	0	0	0	0	0	0	0	0	0	0	0	0	0	0	0	0	0	0	0	0	0	0	0	0	0	0	0	0	0	0	0	0	0	0	0	0	0	0	0	0	0	0	0	0
160x600	MBA RETARGETING- NATIONAL  (Desktop)	udl9yyl	1469168	22174041	MediaMind	ASU- W.P. Carey School of Business 	USD	u8trxzk	90575	ASU W.P. CAREY - 2017 MBA 	3wn1s5d	428146	a-ASUWPC_v-PROG_c-dCPM_b1-MBA_b2-RET_b3-NAT_m-NA_s-160x600	0jtrbz4a	4184881	06/09/2018	Display	USD	7dzcocc	1627	Whirlygig Networks	UTC	1.549222695351978	233	0	0	0	0	0	0	0	0	0	2	0	0	0	0	0	0	0	0	0	0	0	0	0	0	0	0	0	2	0	0	0	0	0	0	0	0	0	0	0	0	0	0	0	0	0	0	0	0	0	0	0	0	0	0	0	0	0	0	0	0	0	0	0	0	0	0	0	0	0	0	0	0	0	0	0	0	0	0	0	1	0	0	0	0	0	0	0	0	0	0	0	0	0	0	0	0	0
160x600	MLFTC - Retargeting (Desktop)	7ftifxa	1464697	18539010	MediaMind	ASU- Mary Lou Fulton Teachers College 	USD	aiewz6c	93403	2017 Mary Lou Fulton Teachers College 	us5b81h	427082	WGIG_RET-MLFTC-160x600	h1j63jc8	2410724	06/09/2018	Display	USD	7dzcocc	1627	Whirlygig Networks	UTC	4.494514779464663	618	0	0	0	0	0	0	0	0	0	3	1	1	0	0	0	0	0	0	0	0	0	31	1	1	0	0	0	0	0	0	0	0	0	0	0	0	0	0	0	0	0	0	0	0	0	0	0	0	0	0	0	0	0	0	0	1	0	0	0	0	0	1	0	0	0	0	0	0	0	0	0	0	0	0	0	0	0	0	0	0	0	0	0	0	0	0	0	0	0	0	0	0	0	0	0	0	0
160x600	Retargeting - (Desktop)- Degrees  - 0-1 Day Recency 	a57jhgc	1577629	24930848	MediaMind	ASU- Thunderbird School of Global Management 	USD	lrpjz8t	91145	ASU Thunderbird - 2017	6prxhfa	432485	a-ASUTBIRD_v-PROG_c-dCPM_b1-DG_b2-RET_b3-NA_m-NA_s-160x600	uvkx6cvo	6027655	06/09/2018	Display	USD	7dzcocc	1627	Whirlygig Networks	UTC	0.331348541265059	14	0	0	0	0	0	0	0	0	0	10	0	0	0	0	0	0	0	0	0	0	0	0	0	0	0	0	0	10	0	0	0	0	0	0	0	0	0	0	0	0	0	0	0	0	0	0	0	0	0	0	0	0	0	0	0	0	0	0	0	0	0	0	0	0	0	0	0	0	0	0	0	0	0	0	0	0	0	0	0	0	0	0	0	0	0	0	0	0	0	0	0	0	0	0	0	0	0
160x600	Retargeting - (Desktop)- Degrees  - 1-3 Days Recency	zzmov9k	1577637	24930848	MediaMind	ASU- Thunderbird School of Global Management 	USD	lrpjz8t	91145	ASU Thunderbird - 2017	6prxhfa	432485	a-ASUTBIRD_v-PROG_c-dCPM_b1-DG_b2-RET_b3-NA_m-NA_s-160x600	uvkx6cvo	6027655	06/09/2018	Display	USD	7dzcocc	1627	Whirlygig Networks	UTC	0.06031964605852	5	0	0	0	0	0	0	0	0	0	2	0	0	0	0	0	0	0	0	0	0	0	0	0	0	0	0	0	2	0	0	0	0	0	0	0	0	0	0	0	0	0	0	0	0	0	0	0	0	0	0	0	0	0	0	0	0	0	0	0	0	0	0	0	0	0	0	0	0	0	0	0	0	0	0	0	0	0	0	0	0	0	0	0	0	0	0	0	0	0	0	0	0	0	0	0	0	0
160x600	Retargeting - (Desktop)- Degrees  - 3-14 Days Recency	ad9sivp	1578365	24930848	MediaMind	ASU- Thunderbird School of Global Management 	USD	lrpjz8t	91145	ASU Thunderbird - 2017	6prxhfa	432485	a-ASUTBIRD_v-PROG_c-dCPM_b1-DG_b2-RET_b3-NA_m-NA_s-160x600	uvkx6cvo	6027655	06/09/2018	Display	USD	7dzcocc	1627	Whirlygig Networks	UTC	0.658148337673197	67	0	0	0	0	0	0	0	0	0	4	0	0	0	0	0	0	0	0	0	0	0	0	0	0	0	0	0	11	0	0	0	0	0	0	0	0	0	0	0	0	0	0	0	0	0	0	0	0	0	0	0	0	0	0	0	0	0	0	0	0	0	0	0	0	0	0	0	0	0	0	0	0	0	0	0	0	0	0	0	0	0	0	0	0	0	0	0	0	0	0	0	0	0	0	0	0	0
160x600	Retargeting - (Desktop)- Degrees 14-90 day Recency 	7vloq3r	1488766	24930848	MediaMind	ASU- Thunderbird School of Global Management 	USD	lrpjz8t	91145	ASU Thunderbird - 2017	6prxhfa	432485	a-ASUTBIRD_v-PROG_c-dCPM_b1-DG_b2-RET_b3-NA_m-NA_s-160x600	uvkx6cvo	6027655	06/09/2018	Display	USD	7dzcocc	1627	Whirlygig Networks	UTC	0.332334341739531	46	1	0	0	0	0	0	0	1	0	24	1	0	0	0	0	0	0	0	0	0	0	0	0	0	0	1	0	24	1	0	0	0	0	0	0	0	0	0	0	0	0	0	0	0	0	0	0	0	0	0	0	0	0	0	0	0	0	0	0	0	0	0	0	0	0	0	0	0	0	0	0	0	0	0	0	0	0	0	0	0	0	0	0	0	0	0	0	0	0	0	0	0	0	0	0	0	0
160x600	Retargeting - All Visits- Desktop	u12zlpt	1488770	24930848	MediaMind	ASU- Thunderbird School of Global Management 	USD	lrpjz8t	91145	ASU Thunderbird - 2017	6prxhfa	432485	a-ASUTBIRD_v-PROG_c-dCPM_b1-DG_b2-RET_b3-NA_m-NA_s-160x600	uvkx6cvo	6027655	06/09/2018	Display	USD	7dzcocc	1627	Whirlygig Networks	UTC	3.732187755428439	587	0	0	0	0	0	0	0	0	0	17	0	0	0	0	0	0	0	0	0	0	0	0	0	0	0	0	0	24	0	0	0	0	0	0	0	0	0	0	0	0	0	0	0	0	0	0	0	0	0	0	0	0	0	0	0	0	0	0	0	0	0	0	0	0	0	0	0	0	0	0	0	0	0	0	0	0	0	0	0	0	0	0	0	0	0	0	0	0	0	0	0	0	0	0	0	0	0
160x600	SM Prospecting Masters - Desktop	g4zdk6w	1969149	22174250	MediaMind	ASU- W.P. Carey School of Business 	USD	u8trxzk	90575	ASU W.P. CAREY - 2017 Specialized Masters	wj44fei	428168	a-ASUWPC_v-PROG_c-dCPM_b1-SM_b2-PROSP_b3-AZ_m-NA_s-160x600	rbtafvx1	4184524	06/09/2018	Display	USD	7dzcocc	1627	Whirlygig Networks	UTC	3.355488485206822	514	0	0	0	0	0	0	0	0	0	0	0	0	0	0	0	16	3	3	0	0	0	0	0	0	0	0	0	0	0	0	0	0	0	0	0	0	0	0	0	0	0	0	0	0	0	0	0	0	0	14	0	0	2	0	2	0	0	0	0	0	0	0	0	0	0	0	0	0	0	0	0	0	0	0	0	0	0	0	0	0	0	0	0	0	0	0	0	0	0	0	0	0	0	0	0	0	0
160x600	SM Prospecting- Audience Predictor - Desktop	zu6lfu4	1480468	22174250	MediaMind	ASU- W.P. Carey School of Business 	USD	u8trxzk	90575	ASU W.P. CAREY - 2017 Specialized Masters	wj44fei	428168	a-ASUWPC_v-PROG_c-dCPM_b1-SM_b2-PROSP_b3-AZ_m-NA_s-160x600	rbtafvx1	4184524	06/09/2018	Display	USD	7dzcocc	1627	Whirlygig Networks	UTC	23.457068286161512	8572	1	0	0	0	0	0	0	1	0	2	1	0	0	0	0	3	1	1	0	0	0	0	0	0	0	1	0	2	1	0	0	2	0	0	1	0	1	0	0	0	0	0	0	0	0	0	0	0	0	0	0	0	0	0	0	0	0	0	0	0	0	0	0	0	0	0	0	0	0	0	0	0	0	0	0	0	0	0	0	0	0	0	0	0	0	0	0	0	0	0	0	0	0	0	0	0	0
160x600	SM Retargeting National - Desktop	ynp4lid	1469306	22174255	MediaMind	ASU- W.P. Carey School of Business 	USD	u8trxzk	90575	ASU W.P. CAREY - 2017 Specialized Masters	wj44fei	428168	a-ASUWPC_v-PROG_c-dCPM_b1-SM_b2-RET_b3-NAT_m-NA_s-160x600	ym0amob0	4184529	06/09/2018	Display	USD	7dzcocc	1627	Whirlygig Networks	UTC	5.187206648282019	497	0	0	0	0	0	0	0	0	0	0	0	0	0	0	0	8	2	2	0	0	0	0	0	0	0	0	0	34	0	0	0	0	0	0	0	0	0	0	0	0	0	0	0	0	0	0	0	0	0	11	0	0	0	0	0	0	0	0	0	0	0	0	0	0	0	0	0	0	0	0	0	0	0	0	0	0	0	0	0	0	0	0	0	0	0	0	0	0	0	0	0	0	0	0	0	0	0
160x600	UG Retargeting - National (Desktop)	3e91szc	1469259	22173811	MediaMind	ASU- W.P. Carey School of Business 	USD	u8trxzk	90575	ASU W.P. CAREY - 2017 Undergraduate	93s6izt	428159	a-ASUWPC_v-PROG_c-dCPM_b1-UG_b2-RET_b3-NAT_m-NA_s-160x600	u79qopxz	4184650	06/09/2018	Display	USD	7dzcocc	1627	Whirlygig Networks	UTC	1.867480392137951	319	0	0	0	0	0	0	0	0	0	0	0	0	0	0	0	1	0	0	0	0	0	0	0	0	0	0	0	0	0	0	0	0	0	0	0	0	0	0	0	0	0	0	0	0	0	0	0	0	0	0	0	0	0	0	0	0	0	0	0	0	0	0	0	0	0	0	0	0	0	0	0	0	0	0	0	0	0	0	0	0	0	0	0	0	0	0	0	0	0	0	0	0	0	0	0	0	0
300x250	BHC - Retargeting - Desktop	wjhbtj3	1476156	18539028	MediaMind	ASU - Barrett Honors College	USD	50wtx2h	93405	ASU Barrett Honors College - 2017	fydyoq3	429915	WGIG_RET-BHC-300x250	kn16x130	2412927	06/09/2018	Display	USD	7dzcocc	1627	Whirlygig Networks	UTC	0	0	0	0	0	0	0	0	0	0	0	24	6	6	0	0	0	0	0	0	0	0	0	110	14	14	0	0	0	0	0	0	0	0	0	0	0	0	0	0	0	0	0	0	0	0	0	0	0	0	0	0	0	0	0	0	0	0	0	0	0	0	0	0	0	0	0	0	0	0	0	0	0	0	0	0	0	0	0	0	0	0	0	0	0	0	0	0	0	0	0	0	0	0	0	0	0	0	0
300x250	Draper- CRM Desktop	sbbd7yf	2359438	23313338	MediaMind	ASU- W.P. Carey School of Business 	USD	u8trxzk	90575	ASU W.P. Carey - 2017 Draper U	yipyupu	608583	a-ASUWPC_v-PROG_c-dCPM_b1-DU_b2-PROSP_m-NA_s-300x250	0podglxw	4895291	06/09/2018	Display	USD	7dzcocc	1627	Whirlygig Networks	UTC	0	0	0	0	0	0	0	0	0	0	0	0	0	0	0	0	0	0	0	0	0	0	0	0	0	0	0	0	0	5	1	1	0	0	0	0	0	0	0	0	0	0	0	0	0	0	0	0	0	0	0	0	0	0	0	0	0	0	0	0	0	0	0	0	0	0	0	0	0	2	0	0	0	0	0	0	0	0	0	0	0	0	0	0	0	0	0	0	0	0	0	0	0	0	0	0	0	0	0
300x250	Exec Ed Oil & Gas Audio - Midland	lfev7x7	2753357	24749936 	Sizmek	ASU- Thunderbird School of Global Management 	USD	lrpjz8t	91145	ASU Thunderbird - 2017 - Oil & Gas	7bzd02o	570969	a-ASUTBIRD_v-PROG_c-dCPM_b1-EE_b2-AUD_b3-NA_m-TBOGCOMP_s-1x1300x250	mhplbj6t	5853882	06/09/2018	Display	USD	7dzcocc	1627	Whirlygig Networks	UTC	0	0	0	0	0	0	0	0	0	0	0	0	0	0	0	0	0	0	0	0	0	0	0	0	0	0	0	0	0	0	0	0	0	0	0	0	0	0	0	0	0	0	0	0	0	0	0	0	0	0	0	0	0	0	0	0	0	0	0	0	0	0	0	0	0	0	0	0	0	0	0	0	0	0	0	0	0	0	0	0	0	0	0	0	0	0	0	0	0	0	0	0	0	0	0	0	0	0	0
300x250	Exec Ed Oil & Gas Audio - Other Geos	8c4kt12	2753358	24749936 	Sizmek	ASU- Thunderbird School of Global Management 	USD	lrpjz8t	91145	ASU Thunderbird - 2017 - Oil & Gas	7bzd02o	570969	a-ASUTBIRD_v-PROG_c-dCPM_b1-EE_b2-AUD_b3-NA_m-TBOGCOMP_s-1x1300x250	mhplbj6t	5853882	06/09/2018	Display	USD	7dzcocc	1627	Whirlygig Networks	UTC	0	0	0	0	0	0	0	0	0	0	0	0	0	0	0	0	0	0	0	0	0	0	0	0	0	0	0	0	0	0	0	0	0	0	0	0	0	0	0	0	0	0	0	0	0	0	0	0	0	0	0	0	0	0	0	0	0	0	0	0	0	0	0	0	0	0	0	0	0	0	0	0	0	0	0	0	0	0	0	0	0	0	0	0	0	0	0	0	0	0	0	0	0	0	0	0	0	0	0
300x250	Exec Ed Prospecting Geo-Fence Audience Oil Gas Companies	ieg7hog	2753630	24588223	MediaMind	ASU- Thunderbird School of Global Management 	USD	lrpjz8t	91145	ASU Thunderbird - 2017 - Oil & Gas	7bzd02o	570969	a-ASUTBIRD_v-PROG_c-dCPM_b1-EE_b2-GF_b3-NA_m-NA_s-300x250	u4wzmcn4	5722103	06/09/2018	Display	USD	7dzcocc	1627	Whirlygig Networks	UTC	2.615914542913336	346	0	0	0	0	0	0	0	0	0	0	0	0	0	0	0	0	0	0	0	0	0	0	0	0	0	0	0	0	0	0	0	0	0	0	0	0	0	0	0	0	0	0	0	0	0	0	0	0	0	0	0	0	0	0	0	0	0	0	0	0	0	0	0	0	0	0	0	0	0	0	0	0	0	0	0	0	0	0	0	0	0	0	0	0	0	0	0	0	0	0	0	0	0	0	0	0	0
300x250	Exec Ed Prospecting Oil & Gas - Contextual	lqyox4x	2238462	24588226	MediaMind	ASU- Thunderbird School of Global Management 	USD	lrpjz8t	91145	ASU Thunderbird - 2017 - Oil & Gas	7bzd02o	570969	a-ASUTBIRD_v-PROG_c-dCPM_b1-EE_b2-PROSP_b3-NA_m-NA_s-300x250	afzaajb0	5722111	06/09/2018	Display	USD	7dzcocc	1627	Whirlygig Networks	UTC	25.03163178266928	2882	2	0	0	0	0	0	0	0	0	0	0	0	0	0	0	0	0	0	0	0	0	0	0	0	0	0	0	0	0	0	0	0	0	0	0	0	0	0	0	0	0	0	0	0	0	0	0	0	0	0	0	0	0	0	0	0	0	0	0	0	0	0	0	0	0	0	0	0	0	0	0	0	0	0	0	0	0	0	0	0	0	0	0	0	0	0	0	0	0	0	0	0	0	0	0	0	0
300x250	Exec Ed Prospecting Oil & Gas - Oil Companies 	i8t5tbo	2234153	24588226	MediaMind	ASU- Thunderbird School of Global Management 	USD	lrpjz8t	91145	ASU Thunderbird - 2017 - Oil & Gas	7bzd02o	570969	a-ASUTBIRD_v-PROG_c-dCPM_b1-EE_b2-PROSP_b3-NA_m-NA_s-300x250	afzaajb0	5722111	06/09/2018	Display	USD	7dzcocc	1627	Whirlygig Networks	UTC	1.481916815487058	248	1	0	0	0	0	0	0	0	0	0	0	0	0	0	0	0	0	0	0	0	0	0	0	0	0	0	0	0	0	0	0	0	0	0	0	0	0	0	0	0	0	0	0	0	0	0	0	0	0	0	0	0	0	0	0	0	0	0	0	0	0	0	0	0	0	0	0	0	0	0	0	0	0	0	0	0	0	0	0	0	0	0	0	0	0	0	0	0	0	0	0	0	0	0	0	0	0
300x250	MBA Preview Day - Audience Predictor- Mobile Web	fwt61qg	2157157	24808119	MediaMind	ASU- W.P. Carey School of Business 	USD	u8trxzk	90575	ASU W.P CAREY - 2017 MBA Preview Day	2ohotlg	568685	a-ASUWPC_v-PROG_c-dCPM_b1-MBA_b2-MOB_b3-AZ_m-MBAPD517DISP_s-300x250	hgk5vibw	5909135	06/09/2018	Display	USD	7dzcocc	1627	Whirlygig Networks	UTC	0	0	0	0	0	0	0	0	0	0	0	1	1	1	0	0	0	0	0	0	0	0	0	0	0	0	0	0	0	1	0	0	0	0	0	0	0	0	0	0	0	0	0	0	0	0	0	0	0	0	0	0	0	0	0	0	0	0	0	0	0	0	0	0	0	0	0	0	0	0	0	0	0	0	0	0	0	0	0	0	0	0	0	0	0	0	0	0	0	0	0	0	0	0	0	0	0	0	0
300x250	MBA Prospecting - Keyword Retargeting	hiudl15	2526137	22174032	MediaMind	ASU- W.P. Carey School of Business 	USD	u8trxzk	90575	ASU W.P. CAREY - 2017 MBA 	3wn1s5d	428146	a-ASUWPC_v-PROG_c-dCPM_b1-MBA_b2-PROSP_b3-AZ_m-NA_s-300x250	0sovyww4	4184842	06/09/2018	Display	USD	7dzcocc	1627	Whirlygig Networks	UTC	2.667693032224312	447	0	0	0	0	0	0	0	0	0	3	0	0	0	0	0	0	0	0	0	0	0	0	0	0	0	0	0	8	0	0	0	0	0	0	0	0	0	0	0	0	0	0	0	0	0	0	0	0	0	0	0	0	0	0	0	0	0	0	0	0	0	3	0	0	0	0	0	0	0	0	0	0	0	0	0	0	0	0	0	0	0	0	0	0	0	0	0	0	0	0	0	0	0	0	0	0	0
300x250	MBA Prospecting - Keyword Retargeting	hiudl15	2526137	24563787	MediaMind	ASU- W.P. Carey School of Business 	USD	u8trxzk	90575	ASU W.P. CAREY - 2017 MBA 	3wn1s5d	428146	a-ASUWPC_v-PROG_c-dCPM_b1-MBA_b2-PROSP_b3-AZ_m-PFLEX_s-300x250	neg130eh	5709820	06/09/2018	Display	USD	7dzcocc	1627	Whirlygig Networks	UTC	4.71946006309618	796	0	0	0	0	0	0	0	0	0	12	1	1	0	0	0	0	0	0	0	0	0	0	0	0	0	0	0	16	0	0	0	0	0	0	0	0	0	0	0	0	0	0	0	0	0	0	0	0	0	0	0	0	0	0	0	0	0	0	0	0	0	12	0	0	1	0	1	0	0	0	0	0	0	0	0	0	0	0	0	0	0	0	0	0	0	0	0	0	0	0	0	0	0	0	0	0	0
300x250	MBA Prospecting- AZ (Desktop) - MBA Only Seekers	9c3pwvm	1614693	22174032	MediaMind	ASU- W.P. Carey School of Business 	USD	u8trxzk	90575	ASU W.P. CAREY - 2017 MBA 	3wn1s5d	428146	a-ASUWPC_v-PROG_c-dCPM_b1-MBA_b2-PROSP_b3-AZ_m-NA_s-300x250	0sovyww4	4184842	06/09/2018	Display	USD	7dzcocc	1627	Whirlygig Networks	UTC	7.894229701791141	1205	0	0	0	0	0	0	0	0	0	4	0	0	0	0	0	0	0	0	0	0	0	0	0	0	0	0	0	5	1	1	0	0	0	0	0	0	0	0	0	0	0	0	0	0	0	0	0	0	0	0	0	0	0	0	0	0	0	0	0	0	0	0	0	0	0	0	0	0	0	0	0	0	0	0	0	0	0	0	0	0	0	0	0	0	0	0	0	0	0	0	0	0	0	0	0	0	0
300x250	MBA Prospecting- AZ (Desktop) - MBA Only Seekers	9c3pwvm	1614693	24563787	MediaMind	ASU- W.P. Carey School of Business 	USD	u8trxzk	90575	ASU W.P. CAREY - 2017 MBA 	3wn1s5d	428146	a-ASUWPC_v-PROG_c-dCPM_b1-MBA_b2-PROSP_b3-AZ_m-PFLEX_s-300x250	neg130eh	5709820	06/09/2018	Display	USD	7dzcocc	1627	Whirlygig Networks	UTC	12.586425465693119	1983	2	0	0	0	0	0	0	1	0	4	1	0	0	0	0	0	0	0	0	0	0	0	0	0	0	1	0	7	2	1	0	0	0	0	0	0	0	0	0	0	0	0	0	0	0	0	0	0	0	0	0	0	0	0	0	0	0	0	0	0	0	0	0	0	0	0	0	0	0	0	0	0	0	0	0	0	0	0	0	0	0	0	0	0	0	0	0	0	0	0	0	0	0	0	0	0	0
300x250	MBA Prospecting- AZ (Desktop) - Senior Level Position	gu9ix5o	1469174	22174032	MediaMind	ASU- W.P. Carey School of Business 	USD	u8trxzk	90575	ASU W.P. CAREY - 2017 MBA 	3wn1s5d	428146	a-ASUWPC_v-PROG_c-dCPM_b1-MBA_b2-PROSP_b3-AZ_m-NA_s-300x250	0sovyww4	4184842	06/09/2018	Display	USD	7dzcocc	1627	Whirlygig Networks	UTC	7.263779531958941	1307	0	0	0	0	0	0	0	0	0	1	0	0	0	0	0	0	0	0	0	0	0	0	0	0	0	0	0	3	0	0	0	0	0	0	0	0	0	0	0	0	0	0	0	0	0	0	0	0	0	0	0	0	0	0	0	0	0	0	0	0	0	0	0	0	0	0	0	0	0	0	0	0	0	0	0	0	0	0	0	0	0	0	0	0	0	0	0	0	0	0	0	0	0	0	0	0	0
300x250	MBA Prospecting- AZ (Desktop) - Senior Level Position	gu9ix5o	1469174	24563787	MediaMind	ASU- W.P. Carey School of Business 	USD	u8trxzk	90575	ASU W.P. CAREY - 2017 MBA 	3wn1s5d	428146	a-ASUWPC_v-PROG_c-dCPM_b1-MBA_b2-PROSP_b3-AZ_m-PFLEX_s-300x250	neg130eh	5709820	06/09/2018	Display	USD	7dzcocc	1627	Whirlygig Networks	UTC	12.934326909293139	2360	1	0	0	0	0	0	0	0	0	2	0	0	0	0	0	0	0	0	0	0	0	0	0	0	0	0	0	5	0	0	0	0	0	0	0	0	0	1	0	0	0	0	0	0	0	0	0	0	0	0	0	0	0	0	0	0	0	0	0	0	0	0	0	0	0	0	0	0	0	0	0	0	0	0	0	0	0	0	0	0	0	0	0	0	0	0	0	0	0	0	0	0	0	0	0	0	0
300x250	MBA Prospecting- Audience Predictor - Arizona	vdgjmyx	1783424	22174032	MediaMind	ASU- W.P. Carey School of Business 	USD	u8trxzk	90575	ASU W.P. CAREY - 2017 MBA 	3wn1s5d	428146	a-ASUWPC_v-PROG_c-dCPM_b1-MBA_b2-PROSP_b3-AZ_m-NA_s-300x250	0sovyww4	4184842	06/09/2018	Display	USD	7dzcocc	1627	Whirlygig Networks	UTC	91.759638902016264	18865	0	0	0	0	0	0	0	0	0	38	4	4	0	0	0	32	5	5	0	0	0	0	0	0	0	0	0	48	4	4	0	0	0	0	0	0	0	10	0	0	0	0	0	1	0	0	0	0	0	0	0	0	0	0	0	0	0	0	0	0	0	1	0	0	1	0	1	0	0	0	0	0	0	0	0	0	0	0	0	0	0	0	0	0	0	0	0	0	0	0	0	0	0	0	0	0	0
300x250	MBA Prospecting- Audience Predictor - Arizona - Proflex	vx9p7sb	2843714	24563787	MediaMind	ASU- W.P. Carey School of Business 	USD	u8trxzk	90575	ASU W.P. CAREY - 2017 MBA 	3wn1s5d	428146	a-ASUWPC_v-PROG_c-dCPM_b1-MBA_b2-PROSP_b3-AZ_m-PFLEX_s-300x250	neg130eh	5709820	06/09/2018	Display	USD	7dzcocc	1627	Whirlygig Networks	UTC	0	0	0	0	0	0	0	0	0	0	0	0	0	0	0	0	0	1	0	0	0	0	0	0	0	0	0	0	0	0	0	0	0	0	0	0	0	0	0	0	0	0	0	0	0	0	0	0	0	0	0	0	0	0	0	0	0	0	0	0	0	0	0	0	0	0	0	0	0	0	0	0	0	0	0	0	0	0	0	0	0	0	0	0	0	0	0	0	0	0	0	0	0	0	0	0	0	0	0
300x250	MBA RETARGETING- Arizona Only (Desktop)	yxsq8rx	1469164	22174037	MediaMind	ASU- W.P. Carey School of Business 	USD	u8trxzk	90575	ASU W.P. CAREY - 2017 MBA 	3wn1s5d	428146	a-ASUWPC_v-PROG_c-dCPM_b1-MBA_b2-RET_b3-AZ_m-NA_s-300x250	dqu236to	4184862	06/09/2018	Display	USD	7dzcocc	1627	Whirlygig Networks	UTC	9.557728199325068	1059	0	0	0	0	0	0	0	0	0	0	0	0	0	0	0	0	0	0	0	0	0	0	0	0	0	0	0	0	0	0	0	0	0	0	0	0	0	0	0	0	0	0	0	0	0	0	0	0	0	0	0	0	0	0	0	0	0	0	0	0	0	0	0	0	0	0	0	0	0	0	0	0	0	0	0	0	0	0	0	0	0	0	0	0	0	0	0	0	0	0	0	0	0	0	0	0	0
300x250	MBA RETARGETING- NATIONAL  (Desktop)	udl9yyl	1469168	22174042	MediaMind	ASU- W.P. Carey School of Business 	USD	u8trxzk	90575	ASU W.P. CAREY - 2017 MBA 	3wn1s5d	428146	a-ASUWPC_v-PROG_c-dCPM_b1-MBA_b2-RET_b3-NAT_m-NA_s-300x250	evyibfo7	4184887	06/09/2018	Display	USD	7dzcocc	1627	Whirlygig Networks	UTC	10.568104155492257	1226	1	0	0	0	0	0	0	1	0	181	1	0	0	0	0	0	0	0	0	0	0	0	0	0	0	1	0	188	1	0	0	0	0	0	0	0	0	0	0	0	0	0	0	0	0	0	0	0	0	0	0	0	0	0	0	0	0	0	0	0	0	0	0	0	0	0	0	0	0	0	0	0	0	0	0	0	0	0	0	51	0	0	1	0	1	0	0	0	0	0	0	0	0	0	0	0	0
300x250	MLFTC - Retargeting (Desktop)	7ftifxa	1464697	18539011	MediaMind	ASU- Mary Lou Fulton Teachers College 	USD	aiewz6c	93403	2017 Mary Lou Fulton Teachers College 	us5b81h	427082	WGIG_RET-MLFTC-300x250	ffqthv60	2410723	06/09/2018	Display	USD	7dzcocc	1627	Whirlygig Networks	UTC	31.03601604325418	3259	1	0	0	0	0	0	0	0	0	74	8	8	0	0	0	0	0	0	0	0	0	197	10	10	0	0	0	0	0	0	0	0	0	0	0	0	0	0	0	0	0	0	0	0	0	0	0	0	0	0	0	0	0	0	0	2	0	0	0	0	0	2	0	0	0	0	0	0	0	0	0	0	0	0	0	0	0	0	0	0	0	0	0	0	0	0	0	0	0	0	0	0	0	0	0	0	0
300x250	Retargeting - (Desktop)- Degrees  - 0-1 Day Recency 	a57jhgc	1577629	24930849	MediaMind	ASU- Thunderbird School of Global Management 	USD	lrpjz8t	91145	ASU Thunderbird - 2017	6prxhfa	432485	a-ASUTBIRD_v-PROG_c-dCPM_b1-DG_b2-RET_b3-NA_m-NA_s-300x250	ji8u44h8	6027656	06/09/2018	Display	USD	7dzcocc	1627	Whirlygig Networks	UTC	3.006052849011199	118	1	0	0	0	0	0	0	1	0	95	2	1	0	0	0	0	0	0	0	0	0	0	0	0	0	1	0	105	2	1	0	0	0	0	0	0	0	0	0	0	0	0	0	0	0	0	0	0	0	0	0	0	0	0	0	0	0	0	0	0	0	0	0	0	0	0	0	0	0	0	0	0	0	0	0	0	0	0	0	0	0	0	0	0	0	0	0	0	0	0	0	0	0	0	0	0	0
300x250	Retargeting - (Desktop)- Degrees  - 1-3 Days Recency	zzmov9k	1577637	24930849	MediaMind	ASU- Thunderbird School of Global Management 	USD	lrpjz8t	91145	ASU Thunderbird - 2017	6prxhfa	432485	a-ASUTBIRD_v-PROG_c-dCPM_b1-DG_b2-RET_b3-NA_m-NA_s-300x250	ji8u44h8	6027656	06/09/2018	Display	USD	7dzcocc	1627	Whirlygig Networks	UTC	0.815785744561107	47	0	0	0	0	0	0	0	0	0	26	4	4	0	0	0	0	0	0	0	0	0	0	0	0	0	0	0	34	4	4	0	0	0	0	0	0	0	0	0	0	0	0	0	0	0	0	0	0	0	0	0	0	0	0	0	0	0	0	0	0	0	0	0	0	0	0	0	0	0	0	0	0	0	0	0	0	0	0	0	0	0	0	0	0	0	0	0	0	0	0	0	0	0	0	0	0	0
300x250	Retargeting - (Desktop)- Degrees  - 3-14 Days Recency	ad9sivp	1578365	24930849	MediaMind	ASU- Thunderbird School of Global Management 	USD	lrpjz8t	91145	ASU Thunderbird - 2017	6prxhfa	432485	a-ASUTBIRD_v-PROG_c-dCPM_b1-DG_b2-RET_b3-NA_m-NA_s-300x250	ji8u44h8	6027656	06/09/2018	Display	USD	7dzcocc	1627	Whirlygig Networks	UTC	2.858142626493393	237	0	0	0	0	0	0	0	0	0	32	0	0	0	0	0	0	0	0	0	0	0	0	0	0	0	0	0	48	1	1	0	0	0	0	0	0	0	0	0	0	0	0	0	0	0	0	0	0	0	0	0	0	0	0	0	0	0	0	0	0	0	0	0	0	0	0	0	0	0	0	0	0	0	0	0	0	0	0	0	0	0	0	0	0	0	0	0	0	0	0	0	0	0	0	0	0	0
300x250	Retargeting - (Desktop)- Degrees 14-90 day Recency 	7vloq3r	1488766	24930849	MediaMind	ASU- Thunderbird School of Global Management 	USD	lrpjz8t	91145	ASU Thunderbird - 2017	6prxhfa	432485	a-ASUTBIRD_v-PROG_c-dCPM_b1-DG_b2-RET_b3-NA_m-NA_s-300x250	ji8u44h8	6027656	06/09/2018	Display	USD	7dzcocc	1627	Whirlygig Networks	UTC	2.515628000664105	290	1	0	0	0	0	0	0	1	0	60	2	1	0	0	0	0	0	0	0	0	0	0	0	0	0	1	0	67	2	1	0	0	0	0	0	0	0	0	0	0	0	0	0	0	0	0	0	0	0	0	0	0	0	0	0	0	0	0	0	0	0	0	0	0	0	0	0	0	0	0	0	0	0	0	0	0	0	0	0	0	0	0	0	0	0	0	0	0	0	0	0	0	0	0	0	0	0
300x250	Retargeting - All Visits- Desktop	u12zlpt	1488770	24930849	MediaMind	ASU- Thunderbird School of Global Management 	USD	lrpjz8t	91145	ASU Thunderbird - 2017	6prxhfa	432485	a-ASUTBIRD_v-PROG_c-dCPM_b1-DG_b2-RET_b3-NA_m-NA_s-300x250	ji8u44h8	6027656	06/09/2018	Display	USD	7dzcocc	1627	Whirlygig Networks	UTC	37.145111592659222	4036	1	0	0	0	0	0	0	1	0	163	4	3	0	0	0	0	0	0	0	0	0	0	0	0	0	1	0	299	5	4	0	0	0	0	0	0	0	0	0	0	0	0	0	0	0	0	0	0	0	0	0	0	0	0	0	0	0	0	0	0	0	0	0	0	0	0	0	0	0	0	0	0	0	0	0	0	0	0	0	0	0	0	0	0	0	0	0	0	0	0	0	0	0	0	0	0	0
300x250	SM Prospecting Masters - Desktop	g4zdk6w	1969149	22174251	MediaMind	ASU- W.P. Carey School of Business 	USD	u8trxzk	90575	ASU W.P. CAREY - 2017 Specialized Masters	wj44fei	428168	a-ASUWPC_v-PROG_c-dCPM_b1-SM_b2-PROSP_b3-AZ_m-NA_s-300x250	owbw3th8	4184525	06/09/2018	Display	USD	7dzcocc	1627	Whirlygig Networks	UTC	12.442068851996583	1725	0	0	0	0	0	0	0	0	0	0	0	0	0	0	0	12	0	0	0	0	0	0	0	0	0	0	0	0	0	0	0	0	0	0	0	0	0	0	0	0	0	0	0	4	0	0	1	0	1	2	0	0	0	0	0	0	0	0	0	0	0	0	0	0	0	0	0	0	0	0	0	0	0	0	0	0	0	0	0	0	0	0	0	0	0	0	0	0	0	0	0	0	0	0	0	0	0
300x250	SM Prospecting- Audience Predictor - Desktop	zu6lfu4	1480468	22174251	MediaMind	ASU- W.P. Carey School of Business 	USD	u8trxzk	90575	ASU W.P. CAREY - 2017 Specialized Masters	wj44fei	428168	a-ASUWPC_v-PROG_c-dCPM_b1-SM_b2-PROSP_b3-AZ_m-NA_s-300x250	owbw3th8	4184525	06/09/2018	Display	USD	7dzcocc	1627	Whirlygig Networks	UTC	24.19701555957191	10626	0	0	0	0	0	0	0	0	0	1	0	0	0	0	0	9	1	1	0	0	0	0	0	0	0	0	0	1	0	0	0	3	0	0	0	0	0	0	0	0	0	0	0	5	0	0	0	0	0	0	0	0	0	0	0	0	0	0	0	0	0	0	0	0	0	0	0	0	0	0	0	0	0	0	0	0	0	0	0	0	0	0	0	0	0	0	0	0	0	0	0	0	0	0	0	0	0
300x250	SM Retargeting National - Desktop	ynp4lid	1469306	22174256	MediaMind	ASU- W.P. Carey School of Business 	USD	u8trxzk	90575	ASU W.P. CAREY - 2017 Specialized Masters	wj44fei	428168	a-ASUWPC_v-PROG_c-dCPM_b1-SM_b2-RET_b3-NAT_m-NA_s-300x250	rzsgv1z8	4184530	06/09/2018	Display	USD	7dzcocc	1627	Whirlygig Networks	UTC	13.670604708525927	1516	0	0	0	0	0	0	0	0	0	1	1	1	0	0	0	47	3	3	0	0	0	0	0	0	0	0	0	53	2	2	0	0	0	0	0	0	0	0	0	0	0	0	0	0	0	0	0	0	0	6	0	0	0	0	0	0	0	0	0	0	0	0	0	0	0	0	0	0	0	0	0	0	0	0	0	0	0	0	0	0	0	0	0	0	0	0	0	0	0	0	0	0	0	0	0	0	0
300x250	UG Retargeting - National (Desktop)	3e91szc	1469259	22173813	MediaMind	ASU- W.P. Carey School of Business 	USD	u8trxzk	90575	ASU W.P. CAREY - 2017 Undergraduate	93s6izt	428159	a-ASUWPC_v-PROG_c-dCPM_b1-UG_b2-RET_b3-NAT_m-NA_s-300x250	nv18nq74	4184651	06/09/2018	Display	USD	7dzcocc	1627	Whirlygig Networks	UTC	15.703240973450984	1846	1	0	0	0	0	0	0	0	0	0	0	0	0	0	0	362	8	8	0	0	0	0	0	0	0	0	0	0	0	0	0	0	0	0	0	0	0	0	0	0	0	0	0	0	0	0	0	0	0	0	0	0	0	0	0	0	0	0	0	0	0	0	0	0	0	0	0	0	0	0	0	0	0	0	0	0	0	0	0	0	0	0	0	0	0	0	0	0	0	0	0	0	0	0	0	0	0
300x600	BHC - Retargeting - Desktop	wjhbtj3	1476156	22583973	MediaMind	ASU - Barrett Honors College	USD	50wtx2h	93405	ASU Barrett Honors College - 2017	fydyoq3	429915	WGIG_RET-BHC-300x600	g974n9lg	4449441	06/09/2018	Display	USD	7dzcocc	1627	Whirlygig Networks	UTC	0	0	0	0	0	0	0	0	0	0	0	12	1	1	0	0	0	0	0	0	0	0	0	23	2	2	0	0	0	0	0	0	0	0	0	0	0	0	0	0	0	0	0	0	0	0	0	0	0	0	0	0	0	0	0	0	0	0	0	0	0	0	0	0	0	0	0	0	0	0	0	0	0	0	0	0	0	0	0	0	0	0	0	0	0	0	0	0	0	0	0	0	0	0	0	0	0	0	0
300x600	Exec Ed Prospecting Oil & Gas - Contextual	lqyox4x	2238462	24588227	MediaMind	ASU- Thunderbird School of Global Management 	USD	lrpjz8t	91145	ASU Thunderbird - 2017 - Oil & Gas	7bzd02o	570969	a-ASUTBIRD_v-PROG_c-dCPM_b1-EE_b2-PROSP_b3-NA_m-NA_s-300x600	y6evlspk	5722113	06/09/2018	Display	USD	7dzcocc	1627	Whirlygig Networks	UTC	3.130913611379529	394	0	0	0	0	0	0	0	0	0	0	0	0	0	0	0	0	0	0	0	0	0	0	0	0	0	0	0	0	0	0	0	0	0	0	0	0	0	0	0	0	0	0	0	0	0	0	0	0	0	0	0	0	0	0	0	0	0	0	0	0	0	0	0	0	0	0	0	0	0	0	0	0	0	0	0	0	0	0	0	0	0	0	0	0	0	0	0	0	0	0	0	0	0	0	0	0	0
300x600	Exec Ed Prospecting Oil & Gas - Oil Companies 	i8t5tbo	2234153	24588227	MediaMind	ASU- Thunderbird School of Global Management 	USD	lrpjz8t	91145	ASU Thunderbird - 2017 - Oil & Gas	7bzd02o	570969	a-ASUTBIRD_v-PROG_c-dCPM_b1-EE_b2-PROSP_b3-NA_m-NA_s-300x600	y6evlspk	5722113	06/09/2018	Display	USD	7dzcocc	1627	Whirlygig Networks	UTC	0.92356289202518	107	0	0	0	0	0	0	0	0	0	0	0	0	0	0	0	0	0	0	0	0	0	0	0	0	0	0	0	0	0	0	0	0	0	0	0	0	0	0	0	0	0	0	0	0	0	0	0	0	0	0	0	0	0	0	0	0	0	0	0	0	0	0	0	0	0	0	0	0	0	0	0	0	0	0	0	0	0	0	0	0	0	0	0	0	0	0	0	0	0	0	0	0	0	0	0	0	0
300x600	MBA Prospecting - Keyword Retargeting	hiudl15	2526137	22174033	MediaMind	ASU- W.P. Carey School of Business 	USD	u8trxzk	90575	ASU W.P. CAREY - 2017 MBA 	3wn1s5d	428146	a-ASUWPC_v-PROG_c-dCPM_b1-MBA_b2-PROSP_b3-AZ_m-NA_s-300x600	20whlr85	4184843	06/09/2018	Display	USD	7dzcocc	1627	Whirlygig Networks	UTC	0.132699483648884	24	0	0	0	0	0	0	0	0	0	0	0	0	0	0	0	0	0	0	0	0	0	0	0	0	0	0	0	0	0	0	0	0	0	0	0	0	0	0	0	0	0	0	0	0	0	0	0	0	0	0	0	0	0	0	0	0	0	0	0	0	0	0	0	0	0	0	0	0	0	0	0	0	0	0	0	0	0	0	0	0	0	0	0	0	0	0	0	0	0	0	0	0	0	0	0	0	0
300x600	MBA Prospecting - Keyword Retargeting	hiudl15	2526137	24563788	MediaMind	ASU- W.P. Carey School of Business 	USD	u8trxzk	90575	ASU W.P. CAREY - 2017 MBA 	3wn1s5d	428146	a-ASUWPC_v-PROG_c-dCPM_b1-MBA_b2-PROSP_b3-AZ_m-PFLEX_s-300x600	j9rb8uj9	5709823	06/09/2018	Display	USD	7dzcocc	1627	Whirlygig Networks	UTC	0.473553292900179	81	0	0	0	0	0	0	0	0	0	0	0	0	0	0	0	0	0	0	0	0	0	0	0	0	0	0	0	1	0	0	0	0	0	0	0	0	0	0	0	0	0	0	0	0	0	0	0	0	0	0	0	0	0	0	0	0	0	0	0	0	0	0	0	0	0	0	0	0	0	0	0	0	0	0	0	0	0	0	0	0	0	0	0	0	0	0	0	0	0	0	0	0	0	0	0	0	0
300x600	MBA Prospecting- AZ (Desktop) - MBA Only Seekers	9c3pwvm	1614693	22174033	MediaMind	ASU- W.P. Carey School of Business 	USD	u8trxzk	90575	ASU W.P. CAREY - 2017 MBA 	3wn1s5d	428146	a-ASUWPC_v-PROG_c-dCPM_b1-MBA_b2-PROSP_b3-AZ_m-NA_s-300x600	20whlr85	4184843	06/09/2018	Display	USD	7dzcocc	1627	Whirlygig Networks	UTC	1.018963758907034	158	0	0	0	0	0	0	0	0	0	0	0	0	0	0	0	0	0	0	0	0	0	0	0	0	0	0	0	0	0	0	0	0	0	0	0	0	0	0	0	0	0	0	0	0	0	0	0	0	0	0	0	0	0	0	0	0	0	0	0	0	0	0	0	0	0	0	0	0	0	0	0	0	0	0	0	0	0	0	0	0	0	0	0	0	0	0	0	0	0	0	0	0	0	0	0	0	0
300x600	MBA Prospecting- AZ (Desktop) - MBA Only Seekers	9c3pwvm	1614693	24563788	MediaMind	ASU- W.P. Carey School of Business 	USD	u8trxzk	90575	ASU W.P. CAREY - 2017 MBA 	3wn1s5d	428146	a-ASUWPC_v-PROG_c-dCPM_b1-MBA_b2-PROSP_b3-AZ_m-PFLEX_s-300x600	j9rb8uj9	5709823	06/09/2018	Display	USD	7dzcocc	1627	Whirlygig Networks	UTC	4.025931400142433	641	0	0	0	0	0	0	0	0	0	1	0	0	0	0	0	0	0	0	0	0	0	0	0	0	0	0	0	1	0	0	0	0	0	0	0	0	0	0	0	0	0	0	0	0	0	0	0	0	0	0	0	0	0	0	0	0	0	0	0	0	0	0	0	0	0	0	0	0	0	0	0	0	0	0	0	0	0	0	0	0	0	0	0	0	0	0	0	0	0	0	0	0	0	0	0	0	0
300x600	MBA Prospecting- AZ (Desktop) - Senior Level Position	gu9ix5o	1469174	22174033	MediaMind	ASU- W.P. Carey School of Business 	USD	u8trxzk	90575	ASU W.P. CAREY - 2017 MBA 	3wn1s5d	428146	a-ASUWPC_v-PROG_c-dCPM_b1-MBA_b2-PROSP_b3-AZ_m-NA_s-300x600	20whlr85	4184843	06/09/2018	Display	USD	7dzcocc	1627	Whirlygig Networks	UTC	1.151896268670916	208	0	0	0	0	0	0	0	0	0	1	0	0	0	0	0	1	1	1	0	0	0	0	0	0	0	0	0	1	0	0	0	0	0	0	0	0	0	0	0	0	0	0	0	0	0	0	0	0	0	0	0	0	0	0	0	0	0	0	0	0	0	0	0	0	0	0	0	0	0	0	0	0	0	0	0	0	0	0	0	0	0	0	0	0	0	0	0	0	0	0	0	0	0	0	0	0	0
300x600	MBA Prospecting- AZ (Desktop) - Senior Level Position	gu9ix5o	1469174	24563788	MediaMind	ASU- W.P. Carey School of Business 	USD	u8trxzk	90575	ASU W.P. CAREY - 2017 MBA 	3wn1s5d	428146	a-ASUWPC_v-PROG_c-dCPM_b1-MBA_b2-PROSP_b3-AZ_m-PFLEX_s-300x600	j9rb8uj9	5709823	06/09/2018	Display	USD	7dzcocc	1627	Whirlygig Networks	UTC	4.962577051990916	849	0	0	0	0	0	0	0	0	0	3	0	0	0	0	0	0	0	0	0	0	0	0	0	0	0	0	0	4	0	0	0	0	0	0	0	0	0	0	0	0	0	0	0	0	0	0	0	0	0	0	0	0	0	0	0	0	0	0	0	0	0	0	0	0	0	0	0	0	0	0	0	0	0	0	0	0	0	0	0	0	0	0	0	0	0	0	0	0	0	0	0	0	0	0	0	0	0
300x600	MBA Prospecting- Audience Predictor - Arizona	vdgjmyx	1783424	22174033	MediaMind	ASU- W.P. Carey School of Business 	USD	u8trxzk	90575	ASU W.P. CAREY - 2017 MBA 	3wn1s5d	428146	a-ASUWPC_v-PROG_c-dCPM_b1-MBA_b2-PROSP_b3-AZ_m-NA_s-300x600	20whlr85	4184843	06/09/2018	Display	USD	7dzcocc	1627	Whirlygig Networks	UTC	15.612906921622997	3832	1	0	0	0	0	0	0	0	0	2	0	0	0	0	0	4	0	0	0	0	0	0	0	0	0	0	0	6	0	0	0	0	0	0	0	0	0	1	0	0	0	0	0	0	0	0	0	0	0	0	0	0	0	0	0	0	0	0	0	0	0	0	0	0	0	0	0	0	0	0	0	0	0	0	0	0	0	0	0	0	0	0	0	0	0	0	0	0	0	0	0	0	0	0	0	0	0
300x600	MBA RETARGETING- Arizona Only (Desktop)	yxsq8rx	1469164	22174038	MediaMind	ASU- W.P. Carey School of Business 	USD	u8trxzk	90575	ASU W.P. CAREY - 2017 MBA 	3wn1s5d	428146	a-ASUWPC_v-PROG_c-dCPM_b1-MBA_b2-RET_b3-AZ_m-NA_s-300x600	v6lhv21n	4184868	06/09/2018	Display	USD	7dzcocc	1627	Whirlygig Networks	UTC	2.754828663776634	266	0	0	0	0	0	0	0	0	0	0	0	0	0	0	0	0	0	0	0	0	0	0	0	0	0	0	0	0	0	0	0	0	0	0	0	0	0	0	0	0	0	0	0	0	0	0	0	0	0	0	0	0	0	0	0	0	0	0	0	0	0	0	0	0	0	0	0	0	0	0	0	0	0	0	0	0	0	0	0	0	0	0	0	0	0	0	0	0	0	0	0	0	0	0	0	0	0
300x600	MBA RETARGETING- NATIONAL  (Desktop)	udl9yyl	1469168	22174043	MediaMind	ASU- W.P. Carey School of Business 	USD	u8trxzk	90575	ASU W.P. CAREY - 2017 MBA 	3wn1s5d	428146	a-ASUWPC_v-PROG_c-dCPM_b1-MBA_b2-RET_b3-NAT_m-NA_s-300x600	qmvkpq5q	4184889	06/09/2018	Display	USD	7dzcocc	1627	Whirlygig Networks	UTC	7.800850798588649	578	1	0	0	0	0	0	0	1	0	119	2	1	0	0	0	0	0	0	0	0	0	0	0	0	0	1	0	123	2	1	0	0	0	0	0	0	0	0	0	0	0	0	0	0	0	0	0	0	0	0	0	0	0	0	0	0	0	0	0	0	0	2	0	0	2	0	2	0	0	0	0	0	0	0	0	0	0	0	0	5	0	0	0	0	0	0	0	0	0	0	0	0	0	0	0	0	0
300x600	MLFTC - Retargeting (Desktop)	7ftifxa	1464697	20623444	MediaMind	ASU- Mary Lou Fulton Teachers College 	USD	aiewz6c	93403	2017 Mary Lou Fulton Teachers College 	us5b81h	427082	WGIG_RET-MLFTC-300x600	tc5pwnmi	3352752	06/09/2018	Display	USD	7dzcocc	1627	Whirlygig Networks	UTC	8.519304673705858	808	0	0	0	0	0	0	0	0	0	14	0	0	0	0	0	0	0	0	0	0	0	69	5	5	0	0	0	0	0	0	0	0	0	0	0	0	0	0	0	0	0	0	0	0	0	0	0	0	0	0	0	0	0	0	0	1	0	0	0	0	0	1	0	0	0	0	0	0	0	0	0	0	0	0	0	0	0	0	0	0	0	0	0	0	0	0	0	0	0	0	0	0	0	0	0	0	0
300x600	Retargeting - (Desktop)- Degrees  - 0-1 Day Recency 	a57jhgc	1577629	24930850	MediaMind	ASU- Thunderbird School of Global Management 	USD	lrpjz8t	91145	ASU Thunderbird - 2017	6prxhfa	432485	a-ASUTBIRD_v-PROG_c-dCPM_b1-DG_b2-RET_b3-NA_m-NA_s-300x600	03tupnda	6027657	06/09/2018	Display	USD	7dzcocc	1627	Whirlygig Networks	UTC	0.717122216351117	26	0	0	0	0	0	0	0	0	0	14	0	0	0	0	0	0	0	0	0	0	0	0	0	0	0	0	0	16	0	0	0	0	0	0	0	0	0	0	0	0	0	0	0	0	0	0	0	0	0	0	0	0	0	0	0	0	0	0	0	0	0	0	0	0	0	0	0	0	0	0	0	0	0	0	0	0	0	0	0	0	0	0	0	0	0	0	0	0	0	0	0	0	0	0	0	0	0
300x600	Retargeting - (Desktop)- Degrees  - 1-3 Days Recency	zzmov9k	1577637	24930850	MediaMind	ASU- Thunderbird School of Global Management 	USD	lrpjz8t	91145	ASU Thunderbird - 2017	6prxhfa	432485	a-ASUTBIRD_v-PROG_c-dCPM_b1-DG_b2-RET_b3-NA_m-NA_s-300x600	03tupnda	6027657	06/09/2018	Display	USD	7dzcocc	1627	Whirlygig Networks	UTC	0.124359272633392	9	0	0	0	0	0	0	0	0	0	1	0	0	0	0	0	0	0	0	0	0	0	0	0	0	0	0	0	1	0	0	0	0	0	0	0	0	0	0	0	0	0	0	0	0	0	0	0	0	0	0	0	0	0	0	0	0	0	0	0	0	0	0	0	0	0	0	0	0	0	0	0	0	0	0	0	0	0	0	0	0	0	0	0	0	0	0	0	0	0	0	0	0	0	0	0	0	0
300x600	Retargeting - (Desktop)- Degrees  - 3-14 Days Recency	ad9sivp	1578365	24930850	MediaMind	ASU- Thunderbird School of Global Management 	USD	lrpjz8t	91145	ASU Thunderbird - 2017	6prxhfa	432485	a-ASUTBIRD_v-PROG_c-dCPM_b1-DG_b2-RET_b3-NA_m-NA_s-300x600	03tupnda	6027657	06/09/2018	Display	USD	7dzcocc	1627	Whirlygig Networks	UTC	0.783368814987106	58	0	0	0	0	0	0	0	0	0	3	0	0	0	0	0	0	0	0	0	0	0	0	0	0	0	0	0	8	0	0	0	0	0	0	0	0	0	0	0	0	0	0	0	0	0	0	0	0	0	0	0	0	0	0	0	0	0	0	0	0	0	0	0	0	0	0	0	0	0	0	0	0	0	0	0	0	0	0	0	0	0	0	0	0	0	0	0	0	0	0	0	0	0	0	0	0	0
300x600	Retargeting - (Desktop)- Degrees 14-90 day Recency 	7vloq3r	1488766	24930850	MediaMind	ASU- Thunderbird School of Global Management 	USD	lrpjz8t	91145	ASU Thunderbird - 2017	6prxhfa	432485	a-ASUTBIRD_v-PROG_c-dCPM_b1-DG_b2-RET_b3-NA_m-NA_s-300x600	03tupnda	6027657	06/09/2018	Display	USD	7dzcocc	1627	Whirlygig Networks	UTC	0.541450528533375	63	1	0	0	0	0	0	0	1	0	17	4	3	0	0	0	0	0	0	0	0	0	0	0	0	0	1	0	17	4	3	0	0	0	0	0	0	0	0	0	0	0	0	0	0	0	0	0	0	0	0	0	0	0	0	0	0	0	0	0	0	0	0	0	0	0	0	0	0	0	0	0	0	0	0	0	0	0	0	0	0	0	0	0	0	0	0	0	0	0	0	0	0	0	0	0	0	0
300x600	Retargeting - All Visits- Desktop	u12zlpt	1488770	24930850	MediaMind	ASU- Thunderbird School of Global Management 	USD	lrpjz8t	91145	ASU Thunderbird - 2017	6prxhfa	432485	a-ASUTBIRD_v-PROG_c-dCPM_b1-DG_b2-RET_b3-NA_m-NA_s-300x600	03tupnda	6027657	06/09/2018	Display	USD	7dzcocc	1627	Whirlygig Networks	UTC	15.855896010763119	1321	0	0	0	0	0	0	0	0	0	36	0	0	0	0	0	0	0	0	0	0	0	0	0	0	0	0	0	64	0	0	0	0	0	0	0	0	0	0	0	0	0	0	0	0	0	0	0	0	0	0	0	0	0	0	0	0	0	0	0	0	0	0	0	0	0	0	0	0	0	0	0	0	0	0	0	0	0	0	0	0	0	0	0	0	0	0	0	0	0	0	0	0	0	0	0	0	0
300x600	SM Prospecting Masters - Desktop	g4zdk6w	1969149	22174252	MediaMind	ASU- W.P. Carey School of Business 	USD	u8trxzk	90575	ASU W.P. CAREY - 2017 Specialized Masters	wj44fei	428168	a-ASUWPC_v-PROG_c-dCPM_b1-SM_b2-PROSP_b3-AZ_m-NA_s-300x600	iuvongio	4184526	06/09/2018	Display	USD	7dzcocc	1627	Whirlygig Networks	UTC	2.943633122355687	360	0	0	0	0	0	0	0	0	0	0	0	0	0	0	0	1	0	0	0	0	0	0	0	0	0	0	0	0	0	0	0	0	0	0	0	0	0	0	0	0	0	0	0	1	0	0	0	0	0	0	0	0	0	0	0	0	0	0	0	0	0	0	0	0	0	0	0	0	0	0	0	0	0	0	0	0	0	0	0	0	0	0	0	0	0	0	0	0	0	0	0	0	0	0	0	0	0
300x600	SM Prospecting- Audience Predictor - Desktop	zu6lfu4	1480468	22174252	MediaMind	ASU- W.P. Carey School of Business 	USD	u8trxzk	90575	ASU W.P. CAREY - 2017 Specialized Masters	wj44fei	428168	a-ASUWPC_v-PROG_c-dCPM_b1-SM_b2-PROSP_b3-AZ_m-NA_s-300x600	iuvongio	4184526	06/09/2018	Display	USD	7dzcocc	1627	Whirlygig Networks	UTC	16.275092271671302	5690	1	0	0	0	0	0	0	1	0	2	1	0	0	0	0	3	1	1	0	0	0	0	0	0	0	1	0	2	1	0	0	0	0	0	0	0	0	0	0	0	0	0	0	4	0	0	0	0	0	0	0	0	0	0	0	0	0	0	0	0	0	0	0	0	0	0	0	0	0	0	0	0	0	0	0	0	0	0	0	0	0	0	0	0	0	0	0	0	0	0	0	0	0	0	0	0	0
300x600	SM Retargeting National - Desktop	ynp4lid	1469306	22174257	MediaMind	ASU- W.P. Carey School of Business 	USD	u8trxzk	90575	ASU W.P. CAREY - 2017 Specialized Masters	wj44fei	428168	a-ASUWPC_v-PROG_c-dCPM_b1-SM_b2-RET_b3-NAT_m-NA_s-300x600	laj2hea8	4184531	06/09/2018	Display	USD	7dzcocc	1627	Whirlygig Networks	UTC	2.663613296357592	277	0	0	0	0	0	0	0	0	0	0	0	0	0	0	0	5	0	0	0	0	0	0	0	0	0	0	0	4	0	0	0	0	0	0	0	0	0	0	0	0	0	0	0	0	0	0	0	0	0	0	0	0	0	0	0	0	0	0	0	0	0	0	0	0	0	0	0	0	0	0	0	0	0	0	0	0	0	0	0	0	0	0	0	0	0	0	0	0	0	0	0	0	0	0	0	0	0
300x600	UG Retargeting - National (Desktop)	3e91szc	1469259	22173814	MediaMind	ASU- W.P. Carey School of Business 	USD	u8trxzk	90575	ASU W.P. CAREY - 2017 Undergraduate	93s6izt	428159	a-ASUWPC_v-PROG_c-dCPM_b1-UG_b2-RET_b3-NAT_m-NA_s-300x600	ssg7akbv	4184657	06/09/2018	Display	USD	7dzcocc	1627	Whirlygig Networks	UTC	6.648101392421863	610	0	0	0	0	0	0	0	0	0	0	0	0	0	0	0	340	6	6	0	0	0	0	0	0	0	0	0	0	0	0	0	0	0	0	0	0	0	0	0	0	0	0	0	0	0	0	0	0	0	0	0	0	0	0	0	0	0	0	0	0	0	0	0	0	0	0	0	0	0	0	0	0	0	0	0	0	0	0	0	0	0	0	0	0	0	0	0	0	0	0	0	0	0	0	0	0	0
320x50	BHC - Retargeting - Desktop	wjhbtj3	1476156	22583969	MediaMind	ASU - Barrett Honors College	USD	50wtx2h	93405	ASU Barrett Honors College - 2017	fydyoq3	429915	WGIG_RET-BHC-320x50	ii17hqlv	4449437	06/09/2018	Display	USD	7dzcocc	1627	Whirlygig Networks	UTC	0	0	0	0	0	0	0	0	0	0	0	2	2	2	0	0	0	0	0	0	0	0	0	2	2	2	0	0	0	0	0	0	0	0	0	0	0	0	0	0	0	0	0	0	0	0	0	0	0	0	0	0	0	0	0	0	0	0	0	0	0	0	0	0	0	0	0	0	0	0	0	0	0	0	0	0	0	0	0	0	0	0	0	0	0	0	0	0	0	0	0	0	0	0	0	0	0	0	0
320x50	Exec Ed Prospecting Geo-Fence Audience Oil Gas Companies	ieg7hog	2753630	24588224	MediaMind	ASU- Thunderbird School of Global Management 	USD	lrpjz8t	91145	ASU Thunderbird - 2017 - Oil & Gas	7bzd02o	570969	a-ASUTBIRD_v-PROG_c-dCPM_b1-EE_b2-GF_b3-NA_m-NA_s-320x50	l9lxqmi7	5722105	06/09/2018	Display	USD	7dzcocc	1627	Whirlygig Networks	UTC	2.5045724859409	319	0	0	0	0	0	0	0	0	0	0	0	0	0	0	0	0	0	0	0	0	0	0	0	0	0	0	0	0	0	0	0	0	0	0	0	0	0	0	0	0	0	0	0	0	0	0	0	0	0	0	0	0	0	0	0	0	0	0	0	0	0	0	0	0	0	0	0	0	0	0	0	0	0	0	0	0	0	0	0	0	0	0	0	0	0	0	0	0	0	0	0	0	0	0	0	0	0
320x50	Exec Ed Prospecting Oil & Gas - Contextual	lqyox4x	2238462	24588228	MediaMind	ASU- Thunderbird School of Global Management 	USD	lrpjz8t	91145	ASU Thunderbird - 2017 - Oil & Gas	7bzd02o	570969	a-ASUTBIRD_v-PROG_c-dCPM_b1-EE_b2-PROSP_b3-NA_m-NA_s-320x50	fbr0fqel	5722114	06/09/2018	Display	USD	7dzcocc	1627	Whirlygig Networks	UTC	8.70467826280102	1146	0	0	0	0	0	0	0	0	0	0	0	0	0	0	0	0	0	0	0	0	0	0	0	0	0	0	0	0	0	0	0	0	0	0	0	0	0	0	0	0	0	0	0	0	0	0	0	0	0	0	0	0	0	0	0	0	0	0	0	0	0	0	0	0	0	0	0	0	0	0	0	0	0	0	0	0	0	0	0	0	0	0	0	0	0	0	0	0	0	0	0	0	0	0	0	0	0
320x50	Exec Ed Prospecting Oil & Gas - Oil Companies 	i8t5tbo	2234153	24588228	MediaMind	ASU- Thunderbird School of Global Management 	USD	lrpjz8t	91145	ASU Thunderbird - 2017 - Oil & Gas	7bzd02o	570969	a-ASUTBIRD_v-PROG_c-dCPM_b1-EE_b2-PROSP_b3-NA_m-NA_s-320x50	fbr0fqel	5722114	06/09/2018	Display	USD	7dzcocc	1627	Whirlygig Networks	UTC	3.934587848649492	521	0	0	0	0	0	0	0	0	0	0	0	0	0	0	0	0	0	0	0	0	0	0	0	0	0	0	0	0	0	0	0	0	0	0	0	0	0	0	0	0	0	0	0	0	0	0	0	0	0	0	0	0	0	0	0	0	0	0	0	0	0	0	0	0	0	0	0	0	0	0	0	0	0	0	0	0	0	0	0	0	0	0	0	0	0	0	0	0	0	0	0	0	0	0	0	0	0
320x50	MBA Preview Day - Audience Predictor- Mobile Web	fwt61qg	2157157	24808121	MediaMind	ASU- W.P. Carey School of Business 	USD	u8trxzk	90575	ASU W.P CAREY - 2017 MBA Preview Day	2ohotlg	568685	a-ASUWPC_v-PROG_c-dCPM_b1-MBA_b2-MOB_b3-AZ_m-MBAPD517DISP_s-320x50	0hl825dw	5909137	06/09/2018	Display	USD	7dzcocc	1627	Whirlygig Networks	UTC	0	0	0	0	0	0	0	0	0	0	0	3	0	0	0	0	0	0	0	0	0	0	0	0	0	0	0	0	0	7	1	1	0	0	0	0	0	0	0	0	0	0	0	0	0	0	0	0	0	0	0	0	0	0	0	0	0	0	0	0	0	0	0	1	0	0	1	0	1	0	0	0	0	0	0	0	0	0	0	0	0	0	0	0	0	0	0	0	0	0	0	0	0	0	0	0	0	0	0
320x50	MBA Prospecting - Keyword Retargeting	hiudl15	2526137	22174034	MediaMind	ASU- W.P. Carey School of Business 	USD	u8trxzk	90575	ASU W.P. CAREY - 2017 MBA 	3wn1s5d	428146	a-ASUWPC_v-PROG_c-dCPM_b1-MBA_b2-PROSP_b3-AZ_m-NA_s-320x50	2n15mv7j	4184849	06/09/2018	Display	USD	7dzcocc	1627	Whirlygig Networks	UTC	1.437477375103467	251	0	0	0	0	0	0	0	0	0	1	0	0	0	0	0	0	0	0	0	0	0	0	0	0	0	0	0	1	0	0	0	0	0	0	0	0	0	0	0	0	0	0	0	0	0	0	0	0	0	0	0	0	0	0	0	0	0	0	0	0	0	1	0	0	0	0	0	0	0	0	0	0	0	0	0	0	0	0	0	0	0	0	0	0	0	0	0	0	0	0	0	0	0	0	0	0	0
320x50	MBA Prospecting - Keyword Retargeting	hiudl15	2526137	24563789	MediaMind	ASU- W.P. Carey School of Business 	USD	u8trxzk	90575	ASU W.P. CAREY - 2017 MBA 	3wn1s5d	428146	a-ASUWPC_v-PROG_c-dCPM_b1-MBA_b2-PROSP_b3-AZ_m-PFLEX_s-320x50	gefovyhu	5709825	06/09/2018	Display	USD	7dzcocc	1627	Whirlygig Networks	UTC	1.354901863376268	236	0	0	0	0	0	0	0	0	0	1	0	0	0	0	0	0	0	0	0	0	0	0	0	0	0	0	0	1	0	0	0	0	0	0	0	0	0	0	0	0	0	0	0	0	0	0	0	0	0	0	0	0	0	0	0	0	0	0	0	0	0	1	0	0	0	0	0	0	0	0	0	0	0	0	0	0	0	0	0	0	0	0	0	0	0	0	0	0	0	0	0	0	0	0	0	0	0
320x50	MBA Prospecting- AZ (Desktop) - MBA Only Seekers	9c3pwvm	1614693	22174034	MediaMind	ASU- W.P. Carey School of Business 	USD	u8trxzk	90575	ASU W.P. CAREY - 2017 MBA 	3wn1s5d	428146	a-ASUWPC_v-PROG_c-dCPM_b1-MBA_b2-PROSP_b3-AZ_m-NA_s-320x50	2n15mv7j	4184849	06/09/2018	Display	USD	7dzcocc	1627	Whirlygig Networks	UTC	0.320005229104126	53	0	0	0	0	0	0	0	0	0	0	0	0	0	0	0	0	0	0	0	0	0	0	0	0	0	0	0	0	0	0	0	0	0	0	0	0	0	0	0	0	0	0	0	0	0	0	0	0	0	0	0	0	0	0	0	0	0	0	0	0	0	0	0	0	0	0	0	0	0	0	0	0	0	0	0	0	0	0	0	0	0	0	0	0	0	0	0	0	0	0	0	0	0	0	0	0	0
320x50	MBA Prospecting- AZ (Desktop) - MBA Only Seekers	9c3pwvm	1614693	24563789	MediaMind	ASU- W.P. Carey School of Business 	USD	u8trxzk	90575	ASU W.P. CAREY - 2017 MBA 	3wn1s5d	428146	a-ASUWPC_v-PROG_c-dCPM_b1-MBA_b2-PROSP_b3-AZ_m-PFLEX_s-320x50	gefovyhu	5709825	06/09/2018	Display	USD	7dzcocc	1627	Whirlygig Networks	UTC	0.34314487289156	60	0	0	0	0	0	0	0	0	0	0	0	0	0	0	0	0	0	0	0	0	0	0	0	0	0	0	0	0	0	0	0	0	0	0	0	0	0	0	0	0	0	0	0	0	0	0	0	0	0	0	0	0	0	0	0	0	0	0	0	0	0	0	0	0	0	0	0	0	0	0	0	0	0	0	0	0	0	0	0	0	0	0	0	0	0	0	0	0	0	0	0	0	0	0	0	0	0
320x50	MBA Prospecting- AZ (Desktop) - Senior Level Position	gu9ix5o	1469174	22174034	MediaMind	ASU- W.P. Carey School of Business 	USD	u8trxzk	90575	ASU W.P. CAREY - 2017 MBA 	3wn1s5d	428146	a-ASUWPC_v-PROG_c-dCPM_b1-MBA_b2-PROSP_b3-AZ_m-NA_s-320x50	2n15mv7j	4184849	06/09/2018	Display	USD	7dzcocc	1627	Whirlygig Networks	UTC	0.373858809200451	83	0	0	0	0	0	0	0	0	0	0	0	0	0	0	0	0	0	0	0	0	0	0	0	0	0	0	0	0	0	0	0	0	0	0	0	0	0	0	0	0	0	0	0	0	0	0	0	0	0	0	0	0	0	0	0	0	0	0	0	0	0	0	0	0	0	0	0	0	0	0	0	0	0	0	0	0	0	0	0	0	0	0	0	0	0	0	0	0	0	0	0	0	0	0	0	0	0
320x50	MBA Prospecting- AZ (Desktop) - Senior Level Position	gu9ix5o	1469174	24563789	MediaMind	ASU- W.P. Carey School of Business 	USD	u8trxzk	90575	ASU W.P. CAREY - 2017 MBA 	3wn1s5d	428146	a-ASUWPC_v-PROG_c-dCPM_b1-MBA_b2-PROSP_b3-AZ_m-PFLEX_s-320x50	gefovyhu	5709825	06/09/2018	Display	USD	7dzcocc	1627	Whirlygig Networks	UTC	0.390135952568802	83	0	0	0	0	0	0	0	0	0	0	0	0	0	0	0	0	0	0	0	0	0	0	0	0	0	0	0	0	0	0	0	0	0	0	0	0	0	0	0	0	0	0	0	0	0	0	0	0	0	0	0	0	0	0	0	0	0	0	0	0	0	0	0	0	0	0	0	0	0	0	0	0	0	0	0	0	0	0	0	0	0	0	0	0	0	0	0	0	0	0	0	0	0	0	0	0	0
320x50	MBA Prospecting- Audience Predictor - Arizona	vdgjmyx	1783424	22174034	MediaMind	ASU- W.P. Carey School of Business 	USD	u8trxzk	90575	ASU W.P. CAREY - 2017 MBA 	3wn1s5d	428146	a-ASUWPC_v-PROG_c-dCPM_b1-MBA_b2-PROSP_b3-AZ_m-NA_s-320x50	2n15mv7j	4184849	06/09/2018	Display	USD	7dzcocc	1627	Whirlygig Networks	UTC	1.733520370751649	500	0	0	0	0	0	0	0	0	0	0	0	0	0	0	0	0	0	0	0	0	0	0	0	0	0	0	0	4	0	0	0	0	0	0	0	0	0	0	0	0	0	0	0	0	0	0	0	0	0	0	0	0	0	0	0	0	0	0	0	0	0	0	0	0	0	0	0	0	0	0	0	0	0	0	0	0	0	0	0	0	0	0	0	0	0	0	0	0	0	0	0	0	0	0	0	0	0
320x50	MBA RETARGETING- NATIONAL  (Desktop)	udl9yyl	1469168	22174044	MediaMind	ASU- W.P. Carey School of Business 	USD	u8trxzk	90575	ASU W.P. CAREY - 2017 MBA 	3wn1s5d	428146	a-ASUWPC_v-PROG_c-dCPM_b1-MBA_b2-RET_b3-NAT_m-NA_s-320x50	yjazq26b	4184894	06/09/2018	Display	USD	7dzcocc	1627	Whirlygig Networks	UTC	0.361250867831325	70	0	0	0	0	0	0	0	0	0	0	0	0	0	0	0	0	0	0	0	0	0	0	0	0	0	0	0	0	0	0	0	0	0	0	0	0	0	0	0	0	0	0	0	0	0	0	0	0	0	0	0	0	0	0	0	0	0	0	0	0	0	0	0	0	0	0	0	0	0	0	0	0	0	0	0	0	0	0	0	0	0	0	0	0	0	0	0	0	0	0	0	0	0	0	0	0	0
320x50	MLFTC - Retargeting (Desktop)	7ftifxa	1464697	20623446	MediaMind	ASU- Mary Lou Fulton Teachers College 	USD	aiewz6c	93403	2017 Mary Lou Fulton Teachers College 	us5b81h	427082	WGIG_RET-MLFTC-320x50	twe14lqi	3352754	06/09/2018	Display	USD	7dzcocc	1627	Whirlygig Networks	UTC	0.436275576711243	58	0	0	0	0	0	0	0	0	0	1	1	1	0	0	0	0	0	0	0	0	0	4	2	2	0	0	0	0	0	0	0	0	0	0	0	0	0	0	0	0	0	0	0	0	0	0	0	0	0	0	0	0	0	0	0	0	0	0	0	0	0	0	0	0	0	0	0	0	0	0	0	0	0	0	0	0	0	0	0	0	0	0	0	0	0	0	0	0	0	0	0	0	0	0	0	0	0
320x50	Retargeting - (Desktop)- Degrees  - 0-1 Day Recency 	a57jhgc	1577629	24930851	MediaMind	ASU- Thunderbird School of Global Management 	USD	lrpjz8t	91145	ASU Thunderbird - 2017	6prxhfa	432485	a-ASUTBIRD_v-PROG_c-dCPM_b1-DG_b2-RET_b3-NA_m-NA_s-320x50	szjxk1ko	6027658	06/09/2018	Display	USD	7dzcocc	1627	Whirlygig Networks	UTC	0.231351940516349	8	0	0	0	0	0	0	0	0	0	0	0	0	0	0	0	0	0	0	0	0	0	0	0	0	0	0	0	0	0	0	0	0	0	0	0	0	0	0	0	0	0	0	0	0	0	0	0	0	0	0	0	0	0	0	0	0	0	0	0	0	0	0	0	0	0	0	0	0	0	0	0	0	0	0	0	0	0	0	0	0	0	0	0	0	0	0	0	0	0	0	0	0	0	0	0	0	0
320x50	Retargeting - (Desktop)- Degrees  - 1-3 Days Recency	zzmov9k	1577637	24930851	MediaMind	ASU- Thunderbird School of Global Management 	USD	lrpjz8t	91145	ASU Thunderbird - 2017	6prxhfa	432485	a-ASUTBIRD_v-PROG_c-dCPM_b1-DG_b2-RET_b3-NA_m-NA_s-320x50	szjxk1ko	6027658	06/09/2018	Display	USD	7dzcocc	1627	Whirlygig Networks	UTC	0.019438037865749	1	0	0	0	0	0	0	0	0	0	0	0	0	0	0	0	0	0	0	0	0	0	0	0	0	0	0	0	0	0	0	0	0	0	0	0	0	0	0	0	0	0	0	0	0	0	0	0	0	0	0	0	0	0	0	0	0	0	0	0	0	0	0	0	0	0	0	0	0	0	0	0	0	0	0	0	0	0	0	0	0	0	0	0	0	0	0	0	0	0	0	0	0	0	0	0	0	0
320x50	Retargeting - (Desktop)- Degrees  - 3-14 Days Recency	ad9sivp	1578365	24930851	MediaMind	ASU- Thunderbird School of Global Management 	USD	lrpjz8t	91145	ASU Thunderbird - 2017	6prxhfa	432485	a-ASUTBIRD_v-PROG_c-dCPM_b1-DG_b2-RET_b3-NA_m-NA_s-320x50	szjxk1ko	6027658	06/09/2018	Display	USD	7dzcocc	1627	Whirlygig Networks	UTC	0.175576365877798	18	0	0	0	0	0	0	0	0	0	0	0	0	0	0	0	0	0	0	0	0	0	0	0	0	0	0	0	0	0	0	0	0	0	0	0	0	0	0	0	0	0	0	0	0	0	0	0	0	0	0	0	0	0	0	0	0	0	0	0	0	0	0	0	0	0	0	0	0	0	0	0	0	0	0	0	0	0	0	0	0	0	0	0	0	0	0	0	0	0	0	0	0	0	0	0	0	0
320x50	Retargeting - (Desktop)- Degrees 14-90 day Recency 	7vloq3r	1488766	24930851	MediaMind	ASU- Thunderbird School of Global Management 	USD	lrpjz8t	91145	ASU Thunderbird - 2017	6prxhfa	432485	a-ASUTBIRD_v-PROG_c-dCPM_b1-DG_b2-RET_b3-NA_m-NA_s-320x50	szjxk1ko	6027658	06/09/2018	Display	USD	7dzcocc	1627	Whirlygig Networks	UTC	0.11624132444062	17	0	0	0	0	0	0	0	0	0	4	0	0	0	0	0	0	0	0	0	0	0	0	0	0	0	0	0	4	0	0	0	0	0	0	0	0	0	0	0	0	0	0	0	0	0	0	0	0	0	0	0	0	0	0	0	0	0	0	0	0	0	0	0	0	0	0	0	0	0	0	0	0	0	0	0	0	0	0	0	0	0	0	0	0	0	0	0	0	0	0	0	0	0	0	0	0	0
320x50	Retargeting - All Visits- Desktop	u12zlpt	1488770	24930851	MediaMind	ASU- Thunderbird School of Global Management 	USD	lrpjz8t	91145	ASU Thunderbird - 2017	6prxhfa	432485	a-ASUTBIRD_v-PROG_c-dCPM_b1-DG_b2-RET_b3-NA_m-NA_s-320x50	szjxk1ko	6027658	06/09/2018	Display	USD	7dzcocc	1627	Whirlygig Networks	UTC	0.864457281646457	145	0	0	0	0	0	0	0	0	0	6	0	0	0	0	0	0	0	0	0	0	0	0	0	0	0	0	0	9	0	0	0	0	0	0	0	0	0	0	0	0	0	0	0	0	0	0	0	0	0	0	0	0	0	0	0	0	0	0	0	0	0	0	0	0	0	0	0	0	0	0	0	0	0	0	0	0	0	0	0	0	0	0	0	0	0	0	0	0	0	0	0	0	0	0	0	0	0
320x50	SM Prospecting Masters - Desktop	g4zdk6w	1969149	22174253	MediaMind	ASU- W.P. Carey School of Business 	USD	u8trxzk	90575	ASU W.P. CAREY - 2017 Specialized Masters	wj44fei	428168	a-ASUWPC_v-PROG_c-dCPM_b1-SM_b2-PROSP_b3-AZ_m-NA_s-320x50	f6ickaib	4184527	06/09/2018	Display	USD	7dzcocc	1627	Whirlygig Networks	UTC	0.80423279814313	130	0	0	0	0	0	0	0	0	0	0	0	0	0	0	0	5	1	1	0	0	0	0	0	0	0	0	0	0	0	0	0	0	0	0	0	0	0	0	0	0	0	0	0	0	0	0	0	0	0	0	0	0	0	0	0	0	0	0	0	0	0	0	0	0	0	0	0	0	0	0	0	0	0	0	0	0	0	0	0	0	0	0	0	0	0	0	0	0	0	0	0	0	0	0	0	0	0
320x50	SM Prospecting- Audience Predictor - Desktop	zu6lfu4	1480468	22174253	MediaMind	ASU- W.P. Carey School of Business 	USD	u8trxzk	90575	ASU W.P. CAREY - 2017 Specialized Masters	wj44fei	428168	a-ASUWPC_v-PROG_c-dCPM_b1-SM_b2-PROSP_b3-AZ_m-NA_s-320x50	f6ickaib	4184527	06/09/2018	Display	USD	7dzcocc	1627	Whirlygig Networks	UTC	3.25629723733863	1118	0	0	0	0	0	0	0	0	0	0	0	0	0	0	0	3	0	0	0	0	0	0	0	0	0	0	0	0	0	0	0	0	0	0	0	0	0	0	0	0	0	0	0	3	0	0	0	0	0	0	0	0	0	0	0	0	0	0	0	0	0	0	0	0	0	0	0	0	0	0	0	0	0	0	0	0	0	0	0	0	0	0	0	0	0	0	0	0	0	0	0	0	0	0	0	0	0
320x50	SM Retargeting National - Desktop	ynp4lid	1469306	22174258	MediaMind	ASU- W.P. Carey School of Business 	USD	u8trxzk	90575	ASU W.P. CAREY - 2017 Specialized Masters	wj44fei	428168	a-ASUWPC_v-PROG_c-dCPM_b1-SM_b2-RET_b3-NAT_m-NA_s-320x50	3iivz7zn	4184532	06/09/2018	Display	USD	7dzcocc	1627	Whirlygig Networks	UTC	0.511489931967727	90	0	0	0	0	0	0	0	0	0	0	0	0	0	0	0	3	0	0	0	0	0	0	0	0	0	0	0	1	0	0	0	0	0	0	0	0	0	0	0	0	0	0	0	0	0	0	0	0	0	0	0	0	0	0	0	0	0	0	0	0	0	0	0	0	0	0	0	0	0	0	0	0	0	0	0	0	0	0	0	0	0	0	0	0	0	0	0	0	0	0	0	0	0	0	0	0	0
320x50	UG Retargeting - National (Desktop)	3e91szc	1469259	22173815	MediaMind	ASU- W.P. Carey School of Business 	USD	u8trxzk	90575	ASU W.P. CAREY - 2017 Undergraduate	93s6izt	428159	a-ASUWPC_v-PROG_c-dCPM_b1-UG_b2-RET_b3-NAT_m-NA_s-320x50	2z9sudt4	4184661	06/09/2018	Display	USD	7dzcocc	1627	Whirlygig Networks	UTC	0.208286995180724	34	0	0	0	0	0	0	0	0	0	0	0	0	0	0	0	0	0	0	0	0	0	0	0	0	0	0	0	0	0	0	0	0	0	0	0	0	0	0	0	0	0	0	0	0	0	0	0	0	0	0	0	0	0	0	0	0	0	0	0	0	0	0	0	0	0	0	0	0	0	0	0	0	0	0	0	0	0	0	0	0	0	0	0	0	0	0	0	0	0	0	0	0	0	0	0	0	0
728x90	BHC - Retargeting - Desktop	wjhbtj3	1476156	18539029	MediaMind	ASU - Barrett Honors College	USD	50wtx2h	93405	ASU Barrett Honors College - 2017	fydyoq3	429915	WGIG_RET-BHC-728x90	gs8x5mw3	2412925	06/09/2018	Display	USD	7dzcocc	1627	Whirlygig Networks	UTC	0	0	0	0	0	0	0	0	0	0	0	18	0	0	0	0	0	0	0	0	0	0	0	37	1	1	0	0	0	0	0	0	0	0	0	0	0	0	0	0	0	0	0	0	0	0	0	0	0	0	0	0	0	0	0	0	0	0	0	0	0	0	0	0	0	0	0	0	0	0	0	0	0	0	0	0	0	0	0	0	0	0	0	0	0	0	0	0	0	0	0	0	0	0	0	0	0	0	0
728x90	Draper- CRM Desktop	sbbd7yf	2359438	23313341	MediaMind	ASU- W.P. Carey School of Business 	USD	u8trxzk	90575	ASU W.P. Carey - 2017 Draper U	yipyupu	608583	a-ASUWPC_v-PROG_c-dCPM_b1-DU_b2-PROSP_m-NA_s-728x90	9jnppdon	4895294	06/09/2018	Display	USD	7dzcocc	1627	Whirlygig Networks	UTC	0	0	0	0	0	0	0	0	0	0	0	0	0	0	0	0	0	0	0	0	0	0	0	0	0	0	0	0	0	6	0	0	0	0	0	0	0	0	0	0	0	0	0	0	0	0	0	0	0	0	0	0	0	0	0	0	0	0	0	0	0	0	0	0	0	0	0	0	0	0	0	0	0	0	0	0	0	0	0	0	0	0	0	0	0	0	0	0	0	0	0	0	0	0	0	0	0	0	0
728x90	Exec Ed Prospecting Oil & Gas - Contextual	lqyox4x	2238462	24588229	MediaMind	ASU- Thunderbird School of Global Management 	USD	lrpjz8t	91145	ASU Thunderbird - 2017 - Oil & Gas	7bzd02o	570969	a-ASUTBIRD_v-PROG_c-dCPM_b1-EE_b2-PROSP_b3-NA_m-NA_s-728x90	gsv28cnq	5722115	06/09/2018	Display	USD	7dzcocc	1627	Whirlygig Networks	UTC	6.974803863828596	896	1	0	0	0	0	0	0	0	0	0	0	0	0	0	0	0	0	0	0	0	0	0	0	0	0	0	0	0	0	0	0	0	0	0	0	0	0	0	0	0	0	0	0	0	0	0	0	0	0	0	0	0	0	0	0	0	0	0	0	0	0	0	0	0	0	0	0	0	0	0	0	0	0	0	0	0	0	0	0	0	0	0	0	0	0	0	0	0	0	0	0	0	0	0	0	0	0
728x90	Exec Ed Prospecting Oil & Gas - Oil Companies 	i8t5tbo	2234153	24588229	MediaMind	ASU- Thunderbird School of Global Management 	USD	lrpjz8t	91145	ASU Thunderbird - 2017 - Oil & Gas	7bzd02o	570969	a-ASUTBIRD_v-PROG_c-dCPM_b1-EE_b2-PROSP_b3-NA_m-NA_s-728x90	gsv28cnq	5722115	06/09/2018	Display	USD	7dzcocc	1627	Whirlygig Networks	UTC	0.39759797276514	82	0	0	0	0	0	0	0	0	0	0	0	0	0	0	0	0	0	0	0	0	0	0	0	0	0	0	0	0	0	0	0	0	0	0	0	0	0	0	0	0	0	0	0	0	0	0	0	0	0	0	0	0	0	0	0	0	0	0	0	0	0	0	0	0	0	0	0	0	0	0	0	0	0	0	0	0	0	0	0	0	0	0	0	0	0	0	0	0	0	0	0	0	0	0	0	0	0
728x90	MBA Prospecting - Keyword Retargeting	hiudl15	2526137	22174035	MediaMind	ASU- W.P. Carey School of Business 	USD	u8trxzk	90575	ASU W.P. CAREY - 2017 MBA 	3wn1s5d	428146	a-ASUWPC_v-PROG_c-dCPM_b1-MBA_b2-PROSP_b3-AZ_m-NA_s-728x90	a7dyy16m	4184855	06/09/2018	Display	USD	7dzcocc	1627	Whirlygig Networks	UTC	0.963138238565735	160	0	0	0	0	0	0	0	0	0	0	0	0	0	0	0	0	0	0	0	0	0	0	0	0	0	0	0	2	0	0	0	0	0	0	0	0	0	0	0	0	0	0	0	0	0	0	0	0	0	0	0	0	0	0	0	0	0	0	0	0	0	0	0	0	0	0	0	0	0	0	0	0	0	0	0	0	0	0	0	0	0	0	0	0	0	0	0	0	0	0	0	0	0	0	0	0	0
728x90	MBA Prospecting - Keyword Retargeting	hiudl15	2526137	24563790	MediaMind	ASU- W.P. Carey School of Business 	USD	u8trxzk	90575	ASU W.P. CAREY - 2017 MBA 	3wn1s5d	428146	a-ASUWPC_v-PROG_c-dCPM_b1-MBA_b2-PROSP_b3-AZ_m-PFLEX_s-728x90	r229h2ml	5709827	06/09/2018	Display	USD	7dzcocc	1627	Whirlygig Networks	UTC	1.151249438688918	196	0	0	0	0	0	0	0	0	0	0	0	0	0	0	0	0	0	0	0	0	0	0	0	0	0	0	0	4	0	0	0	0	0	0	0	0	0	0	0	0	0	0	0	0	0	0	0	0	0	0	0	0	0	0	0	0	0	0	0	0	0	0	0	0	0	0	0	0	0	0	0	0	0	0	0	0	0	0	0	0	0	0	0	0	0	0	0	0	0	0	0	0	0	0	0	0	0
728x90	MBA Prospecting- AZ (Desktop) - MBA Only Seekers	9c3pwvm	1614693	22174035	MediaMind	ASU- W.P. Carey School of Business 	USD	u8trxzk	90575	ASU W.P. CAREY - 2017 MBA 	3wn1s5d	428146	a-ASUWPC_v-PROG_c-dCPM_b1-MBA_b2-PROSP_b3-AZ_m-NA_s-728x90	a7dyy16m	4184855	06/09/2018	Display	USD	7dzcocc	1627	Whirlygig Networks	UTC	5.377097389109525	926	0	0	0	0	0	0	0	0	0	0	0	0	0	0	0	0	0	0	0	0	0	0	0	0	0	0	0	1	0	0	0	0	0	0	0	0	0	0	0	0	0	0	0	0	0	0	0	0	0	0	0	0	0	0	0	0	0	0	0	0	0	0	0	0	0	0	0	0	0	0	0	0	0	0	0	0	0	0	0	0	0	0	0	0	0	0	0	0	0	0	0	0	0	0	0	0	0
728x90	MBA Prospecting- AZ (Desktop) - MBA Only Seekers	9c3pwvm	1614693	24563790	MediaMind	ASU- W.P. Carey School of Business 	USD	u8trxzk	90575	ASU W.P. CAREY - 2017 MBA 	3wn1s5d	428146	a-ASUWPC_v-PROG_c-dCPM_b1-MBA_b2-PROSP_b3-AZ_m-PFLEX_s-728x90	r229h2ml	5709827	06/09/2018	Display	USD	7dzcocc	1627	Whirlygig Networks	UTC	6.531513678994225	1117	0	0	0	0	0	0	0	0	0	1	0	0	0	0	0	0	0	0	0	0	0	0	0	0	0	0	0	1	0	0	0	0	0	0	0	0	0	0	0	0	0	0	0	0	0	0	0	0	0	0	0	0	0	0	0	0	0	0	0	0	0	0	0	0	0	0	0	0	0	0	0	0	0	0	0	0	0	0	0	0	0	0	0	0	0	0	0	0	0	0	0	0	0	0	0	0	0
728x90	MBA Prospecting- AZ (Desktop) - Senior Level Position	gu9ix5o	1469174	22174035	MediaMind	ASU- W.P. Carey School of Business 	USD	u8trxzk	90575	ASU W.P. CAREY - 2017 MBA 	3wn1s5d	428146	a-ASUWPC_v-PROG_c-dCPM_b1-MBA_b2-PROSP_b3-AZ_m-NA_s-728x90	a7dyy16m	4184855	06/09/2018	Display	USD	7dzcocc	1627	Whirlygig Networks	UTC	2.540480686135405	664	0	0	0	0	0	0	0	0	0	1	0	0	0	0	0	0	0	0	0	0	0	0	0	0	0	0	0	3	1	1	0	0	0	0	0	0	0	0	0	0	0	0	0	0	0	0	0	0	0	0	0	0	0	0	0	0	0	0	0	0	0	0	0	0	0	0	0	0	0	0	0	0	0	0	0	0	0	0	0	0	0	0	0	0	0	0	0	0	0	0	0	0	0	0	0	0	0
728x90	MBA Prospecting- AZ (Desktop) - Senior Level Position	gu9ix5o	1469174	24563790	MediaMind	ASU- W.P. Carey School of Business 	USD	u8trxzk	90575	ASU W.P. CAREY - 2017 MBA 	3wn1s5d	428146	a-ASUWPC_v-PROG_c-dCPM_b1-MBA_b2-PROSP_b3-AZ_m-PFLEX_s-728x90	r229h2ml	5709827	06/09/2018	Display	USD	7dzcocc	1627	Whirlygig Networks	UTC	3.820718393237734	931	0	0	0	0	0	0	0	0	0	0	0	0	0	0	0	0	0	0	0	0	0	0	0	0	0	0	0	0	0	0	0	0	0	0	0	0	0	0	0	0	0	0	0	0	0	0	0	0	0	0	0	0	0	0	0	0	0	0	0	0	0	0	0	0	0	0	0	0	0	0	0	0	0	0	0	0	0	0	0	0	0	0	0	0	0	0	0	0	0	0	0	0	0	0	0	0	0
728x90	MBA Prospecting- Audience Predictor - Arizona	vdgjmyx	1783424	22174035	MediaMind	ASU- W.P. Carey School of Business 	USD	u8trxzk	90575	ASU W.P. CAREY - 2017 MBA 	3wn1s5d	428146	a-ASUWPC_v-PROG_c-dCPM_b1-MBA_b2-PROSP_b3-AZ_m-NA_s-728x90	a7dyy16m	4184855	06/09/2018	Display	USD	7dzcocc	1627	Whirlygig Networks	UTC	22.928985271811745	6840	1	0	0	0	0	0	0	1	0	11	1	0	0	0	0	8	0	0	0	0	0	0	0	0	0	1	0	14	2	1	0	0	0	0	0	0	0	1	0	0	0	0	0	0	0	0	0	0	0	0	0	0	0	0	0	0	0	0	0	0	0	0	0	0	0	0	0	0	0	0	0	0	0	0	0	0	0	0	0	0	0	0	0	0	0	0	0	0	0	0	0	0	0	0	0	0	0
728x90	MBA RETARGETING- Arizona Only (Desktop)	yxsq8rx	1469164	22174040	MediaMind	ASU- W.P. Carey School of Business 	USD	u8trxzk	90575	ASU W.P. CAREY - 2017 MBA 	3wn1s5d	428146	a-ASUWPC_v-PROG_c-dCPM_b1-MBA_b2-RET_b3-AZ_m-NA_s-728x90	gw1o3dfj	4184875	06/09/2018	Display	USD	7dzcocc	1627	Whirlygig Networks	UTC	3.417695595781843	501	0	0	0	0	0	0	0	0	0	0	0	0	0	0	0	0	0	0	0	0	0	0	0	0	0	0	0	0	0	0	0	0	0	0	0	0	0	0	0	0	0	0	0	0	0	0	0	0	0	0	0	0	0	0	0	0	0	0	0	0	0	0	0	0	0	0	0	0	0	0	0	0	0	0	0	0	0	0	0	0	0	0	0	0	0	0	0	0	0	0	0	0	0	0	0	0	0
728x90	MBA RETARGETING- NATIONAL  (Desktop)	udl9yyl	1469168	22174045	MediaMind	ASU- W.P. Carey School of Business 	USD	u8trxzk	90575	ASU W.P. CAREY - 2017 MBA 	3wn1s5d	428146	a-ASUWPC_v-PROG_c-dCPM_b1-MBA_b2-RET_b3-NAT_m-NA_s-728x90	vv2gqy98	4184900	06/09/2018	Display	USD	7dzcocc	1627	Whirlygig Networks	UTC	10.137952471934583	1083	0	0	0	0	0	0	0	0	0	178	0	0	0	0	0	0	0	0	0	0	0	0	0	0	0	0	0	180	0	0	0	0	0	0	0	0	0	0	0	0	0	0	0	0	0	0	0	0	0	0	0	0	0	0	0	0	0	0	0	0	0	1	0	0	0	0	0	0	0	0	0	0	0	0	0	0	0	0	0	32	0	0	1	0	1	0	0	0	0	0	0	0	0	0	0	0	0
728x90	MLFTC - Retargeting (Desktop)	7ftifxa	1464697	18539013	MediaMind	ASU- Mary Lou Fulton Teachers College 	USD	aiewz6c	93403	2017 Mary Lou Fulton Teachers College 	us5b81h	427082	WGIG_RET-MLFTC-728x90	4stmpgc6	2410721	06/09/2018	Display	USD	7dzcocc	1627	Whirlygig Networks	UTC	12.843608188575054	1482	0	0	0	0	0	0	0	0	0	8	1	1	0	0	0	0	0	0	0	0	0	103	4	4	0	0	0	0	0	0	0	0	0	0	0	0	0	0	0	0	0	0	0	0	0	0	0	0	0	0	0	0	0	0	0	1	0	0	1	0	1	1	0	0	1	0	1	0	0	0	0	0	0	0	0	0	0	0	0	0	0	0	0	0	0	0	0	0	0	0	0	0	0	0	0	0	0
728x90	Retargeting - (Desktop)- Degrees  - 0-1 Day Recency 	a57jhgc	1577629	24930852	MediaMind	ASU- Thunderbird School of Global Management 	USD	lrpjz8t	91145	ASU Thunderbird - 2017	6prxhfa	432485	a-ASUTBIRD_v-PROG_c-dCPM_b1-DG_b2-RET_b3-NA_m-NA_s-728x90	1wl0ddl3	6027659	06/09/2018	Display	USD	7dzcocc	1627	Whirlygig Networks	UTC	2.372239615787437	77	0	0	0	0	0	0	0	0	0	19	0	0	0	0	0	0	0	0	0	0	0	0	0	0	0	0	0	27	0	0	0	0	0	0	0	0	0	0	0	0	0	0	0	0	0	0	0	0	0	0	0	0	0	0	0	0	0	0	0	0	0	0	0	0	0	0	0	0	0	0	0	0	0	0	0	0	0	0	0	0	0	0	0	0	0	0	0	0	0	0	0	0	0	0	0	0	0
728x90	Retargeting - (Desktop)- Degrees  - 1-3 Days Recency	zzmov9k	1577637	24930852	MediaMind	ASU- Thunderbird School of Global Management 	USD	lrpjz8t	91145	ASU Thunderbird - 2017	6prxhfa	432485	a-ASUTBIRD_v-PROG_c-dCPM_b1-DG_b2-RET_b3-NA_m-NA_s-728x90	1wl0ddl3	6027659	06/09/2018	Display	USD	7dzcocc	1627	Whirlygig Networks	UTC	0.432746982702238	28	0	0	0	0	0	0	0	0	0	12	1	1	0	0	0	0	0	0	0	0	0	0	0	0	0	0	0	21	1	1	0	0	0	0	0	0	0	0	0	0	0	0	0	0	0	0	0	0	0	0	0	0	0	0	0	0	0	0	0	0	0	0	0	0	0	0	0	0	0	0	0	0	0	0	0	0	0	0	0	0	0	0	0	0	0	0	0	0	0	0	0	0	0	0	0	0	0
728x90	Retargeting - (Desktop)- Degrees  - 3-14 Days Recency	ad9sivp	1578365	24930852	MediaMind	ASU- Thunderbird School of Global Management 	USD	lrpjz8t	91145	ASU Thunderbird - 2017	6prxhfa	432485	a-ASUTBIRD_v-PROG_c-dCPM_b1-DG_b2-RET_b3-NA_m-NA_s-728x90	1wl0ddl3	6027659	06/09/2018	Display	USD	7dzcocc	1627	Whirlygig Networks	UTC	3.475756280160293	209	1	0	0	0	0	0	0	1	0	18	3	2	0	0	0	0	0	0	0	0	0	0	0	0	0	1	0	26	3	2	0	0	0	0	0	0	0	0	0	0	0	0	0	0	0	0	0	0	0	0	0	0	0	0	0	0	0	0	0	0	0	0	0	0	0	0	0	0	0	0	0	0	0	0	0	0	0	0	0	0	0	0	0	0	0	0	0	0	0	0	0	0	0	0	0	0	0
728x90	Retargeting - (Desktop)- Degrees 14-90 day Recency 	7vloq3r	1488766	24930852	MediaMind	ASU- Thunderbird School of Global Management 	USD	lrpjz8t	91145	ASU Thunderbird - 2017	6prxhfa	432485	a-ASUTBIRD_v-PROG_c-dCPM_b1-DG_b2-RET_b3-NA_m-NA_s-728x90	1wl0ddl3	6027659	06/09/2018	Display	USD	7dzcocc	1627	Whirlygig Networks	UTC	2.786925140113088	243	0	0	0	0	0	0	0	0	0	37	0	0	0	0	0	0	0	0	0	0	0	0	0	0	0	0	0	46	0	0	0	0	0	0	0	0	0	0	0	0	0	0	0	0	0	0	0	0	0	0	0	0	0	0	0	0	0	0	0	0	0	0	0	0	0	0	0	0	0	0	0	0	0	0	0	0	0	0	0	0	0	0	0	0	0	0	0	0	0	0	0	0	0	0	0	0	0
728x90	Retargeting - All Visits- Desktop	u12zlpt	1488770	24930852	MediaMind	ASU- Thunderbird School of Global Management 	USD	lrpjz8t	91145	ASU Thunderbird - 2017	6prxhfa	432485	a-ASUTBIRD_v-PROG_c-dCPM_b1-DG_b2-RET_b3-NA_m-NA_s-728x90	1wl0ddl3	6027659	06/09/2018	Display	USD	7dzcocc	1627	Whirlygig Networks	UTC	26.492464662908243	2559	1	0	0	0	0	0	0	1	0	63	4	3	0	0	0	0	0	0	0	0	0	0	0	0	0	1	0	116	4	3	0	0	0	0	0	0	0	0	0	0	0	0	0	0	0	0	0	0	0	0	0	0	0	0	0	0	0	0	0	0	0	0	0	0	0	0	0	0	0	0	0	0	0	0	0	0	0	0	0	0	0	0	0	0	0	0	0	0	0	0	0	0	0	0	0	0	0
728x90	SM Prospecting Masters - Desktop	g4zdk6w	1969149	22174254	MediaMind	ASU- W.P. Carey School of Business 	USD	u8trxzk	90575	ASU W.P. CAREY - 2017 Specialized Masters	wj44fei	428168	a-ASUWPC_v-PROG_c-dCPM_b1-SM_b2-PROSP_b3-AZ_m-NA_s-728x90	ert8pwqm	4184528	06/09/2018	Display	USD	7dzcocc	1627	Whirlygig Networks	UTC	6.993246763565707	1026	0	0	0	0	0	0	0	0	0	0	0	0	0	0	0	2	0	0	0	0	0	0	0	0	0	0	0	0	0	0	0	0	0	0	0	0	0	0	0	0	0	0	0	0	0	0	0	0	0	0	0	0	0	0	0	0	0	0	0	0	0	0	0	0	0	0	0	0	0	0	0	0	0	0	0	0	0	0	0	0	0	0	0	0	0	0	0	0	0	0	0	0	0	0	0	0	0
728x90	SM Prospecting- Audience Predictor - Desktop	zu6lfu4	1480468	22174254	MediaMind	ASU- W.P. Carey School of Business 	USD	u8trxzk	90575	ASU W.P. CAREY - 2017 Specialized Masters	wj44fei	428168	a-ASUWPC_v-PROG_c-dCPM_b1-SM_b2-PROSP_b3-AZ_m-NA_s-728x90	ert8pwqm	4184528	06/09/2018	Display	USD	7dzcocc	1627	Whirlygig Networks	UTC	16.356411812084289	6924	0	0	0	0	0	0	0	0	0	0	0	0	0	0	0	10	0	0	0	0	0	0	0	0	0	0	0	0	0	0	0	1	0	0	0	0	0	2	0	0	1	0	1	7	0	0	0	0	0	0	0	0	0	0	0	0	0	0	0	0	0	0	0	0	0	0	0	0	0	0	0	0	0	0	0	0	0	0	0	0	0	0	0	0	0	0	0	0	0	0	0	0	0	0	0	0	0
728x90	SM Retargeting National - Desktop	ynp4lid	1469306	22174259	MediaMind	ASU- W.P. Carey School of Business 	USD	u8trxzk	90575	ASU W.P. CAREY - 2017 Specialized Masters	wj44fei	428168	a-ASUWPC_v-PROG_c-dCPM_b1-SM_b2-RET_b3-NAT_m-NA_s-728x90	ngrimtj9	4184533	06/09/2018	Display	USD	7dzcocc	1627	Whirlygig Networks	UTC	8.155391265250662	991	1	0	0	0	0	0	0	0	0	3	0	0	0	0	0	39	3	3	0	0	0	0	0	0	0	0	0	38	0	0	0	0	0	0	0	0	0	0	0	0	0	0	0	0	0	0	0	0	0	3	0	0	1	0	1	0	0	0	0	0	0	0	0	0	0	0	0	0	0	0	0	0	0	0	0	0	0	0	0	0	0	0	0	0	0	0	0	0	0	0	0	0	0	0	0	0	0
728x90	UG Retargeting - National (Desktop)	3e91szc	1469259	22173816	MediaMind	ASU- W.P. Carey School of Business 	USD	u8trxzk	90575	ASU W.P. CAREY - 2017 Undergraduate	93s6izt	428159	a-ASUWPC_v-PROG_c-dCPM_b1-UG_b2-RET_b3-NAT_m-NA_s-728x90	5s6e5vc0	4184664	06/09/2018	Display	USD	7dzcocc	1627	Whirlygig Networks	UTC	12.200100563579327	1281	0	0	0	0	0	0	0	0	0	0	0	0	0	0	0	658	16	16	0	0	0	0	0	0	0	0	0	0	0	0	0	0	0	0	0	0	0	0	0	0	0	0	0	0	0	0	0	0	0	0	0	0	0	0	0	0	0	0	0	0	0	0	0	0	0	0	0	0	0	0	0	0	0	0	0	0	0	0	0	0	0	0	0	0	0	0	0	0	0	0	0	0	0	0	0	0	0
9545x9545	Exec Ed Oil & Gas Audio - Midland	lfev7x7	2753357	24749935	Sizmek	ASU- Thunderbird School of Global Management 	USD	lrpjz8t	91145	ASU Thunderbird - 2017 - Oil & Gas	7bzd02o	570969	a-ASUTBIRD_v-PROG_c-dCPM_b1-EE_b2-AUD_b3-NA_m-TBOGAUD_s-1x1Aud30s	svykwesk	5903212	06/09/2018	Audio	USD	7dzcocc	1627	Whirlygig Networks	UTC	3.026252453012075	125	0	0	0	0	0	0	0	0	0	0	0	0	0	0	0	0	0	0	0	0	0	0	0	0	0	0	0	0	0	0	0	0	0	0	0	0	0	0	0	0	0	0	0	0	0	0	0	0	0	0	0	0	0	0	0	0	0	0	0	0	0	0	0	0	0	0	0	0	0	0	0	0	0	0	0	0	0	0	0	0	0	0	0	0	0	0	0	0	0	0	0	0	0	0	0	0	0
9545x9545	Exec Ed Oil & Gas Audio - Other Geos	8c4kt12	2753358	24749935	Sizmek	ASU- Thunderbird School of Global Management 	USD	lrpjz8t	91145	ASU Thunderbird - 2017 - Oil & Gas	7bzd02o	570969	a-ASUTBIRD_v-PROG_c-dCPM_b1-EE_b2-AUD_b3-NA_m-TBOGAUD_s-1x1Aud30s	svykwesk	5903212	06/09/2018	Audio	USD	7dzcocc	1627	Whirlygig Networks	UTC	94.594481916481046	3821	2	0	0	0	0	0	0	0	0	0	0	0	0	0	0	0	0	0	0	0	0	0	0	0	0	0	0	0	0	0	0	0	0	0	0	0	0	0	0	0	0	0	0	0	0	0	0	0	0	0	0	0	0	0	0	0	0	0	0	0	0	0	0	0	0	0	0	0	0	0	0	0	0	0	0	0	0	0	0	0	0	0	0	0	0	0	0	0	0	0	0	0	0	0	0	0	0
